Inferentials with Infer
…
Let's test the association between income (`income`) and educational attainment (`college`) and family income (`finrela`)

count: false

.panel1-sw1-auto[

```r
*gss
```
]
 
.panel2-sw1-auto[

```
## # A tibble: 500 × 11
##     year   age sex    college   partyid hompop hours income class finrela weight
##    <dbl> <dbl> <fct>  <fct>     <fct>    <dbl> <dbl> <ord>  <fct> <fct>    <dbl>
##  1  2014    36 male   degree    ind          3    50 $2500… midd… below …  0.896
##  2  1994    34 female no degree rep          4    31 $2000… work… below …  1.08 
##  3  1998    24 male   degree    ind          1    40 $2500… work… below …  0.550
##  4  1996    42 male   no degree ind          4    40 $2500… work… above …  1.09 
##  5  1994    31 male   degree    rep          2    40 $2500… midd… above …  1.08 
##  6  1996    32 female no degree rep          4    53 $2500… midd… average  1.09 
##  7  1990    48 female no degree dem          2    32 $2500… work… below …  1.06 
##  8  2016    36 female degree    ind          1    20 $2500… midd… above …  0.478
##  9  2000    30 female degree    rep          5    40 $2500… midd… average  1.10 
## 10  1998    33 female no degree dem          2    40 $1500… work… far be…  0.550
## # … with 490 more rows
```
…
---
count: false

.panel1-sw1-auto[

```r
gss %>%
* filter(finrela != "DK")
```
]
 
.panel2-sw1-auto[

```
## # A tibble: 495 × 11
##     year   age sex    college   partyid hompop hours income class finrela weight
##    <dbl> <dbl> <fct>  <fct>     <fct>    <dbl> <dbl> <ord>  <fct> <fct>    <dbl>
##  1  2014    36 male   degree    ind          3    50 $2500… midd… below …  0.896
##  2  1994    34 female no degree rep          4    31 $2000… work… below …  1.08 
##  3  1998    24 male   degree    ind          1    40 $2500… work… below …  0.550
##  4  1996    42 male   no degree ind          4    40 $2500… work… above …  1.09 
##  5  1994    31 male   degree    rep          2    40 $2500… midd… above …  1.08 
##  6  1996    32 female no degree rep          4    53 $2500… midd… average  1.09 
##  7  1990    48 female no degree dem          2    32 $2500… work… below …  1.06 
##  8  2016    36 female degree    ind          1    20 $2500… midd… above …  0.478
##  9  2000    30 female degree    rep          5    40 $2500… midd… average  1.10 
## 10  1998    33 female no degree dem          2    40 $1500… work… far be…  0.550
## # … with 485 more rows
```
…
Now calculate the observed statistic

count: false

.panel1-sw2-auto[

```r
*gss
```
]
 
.panel2-sw2-auto[

```
## # A tibble: 500 × 11
##     year   age sex    college   partyid hompop hours income class finrela weight
##    <dbl> <dbl> <fct>  <fct>     <fct>    <dbl> <dbl> <ord>  <fct> <fct>    <dbl>
##  1  2014    36 male   degree    ind          3    50 $2500… midd… below …  0.896
##  2  1994    34 female no degree rep          4    31 $2000… work… below …  1.08 
##  3  1998    24 male   degree    ind          1    40 $2500… work… below …  0.550
##  4  1996    42 male   no degree ind          4    40 $2500… work… above …  1.09 
##  5  1994    31 male   degree    rep          2    40 $2500… midd… above …  1.08 
##  6  1996    32 female no degree rep          4    53 $2500… midd… average  1.09 
##  7  1990    48 female no degree dem          2    32 $2500… work… below …  1.06 
##  8  2016    36 female degree    ind          1    20 $2500… midd… above …  0.478
##  9  2000    30 female degree    rep          5    40 $2500… midd… average  1.10 
## 10  1998    33 female no degree dem          2    40 $1500… work… far be…  0.550
## # … with 490 more rows
```
…
.panel1-sw2-auto[

```r
gss %>%
* specify(college ~ finrela)   # compare variables
```
]
 
.panel2-sw2-auto[

```
## Response: college (factor)
## Explanatory: finrela (factor)
## # A tibble: 500 × 2
##    college   finrela          
##    <fct>     <fct>            
##  1 degree    below average    
##  2 no degree below average    
##  3 degree    below average    
##  4 no degree above average    
##  5 degree    above average    
##  6 no degree average          
##  7 no degree below average    
##  8 degree    above average    
##  9 degree    average          
## 10 no degree far below average
## # … with 490 more rows
```
…
```r
gss %>%
  specify(college ~ finrela) %>%  # compare variables
* hypothesise(null = "independence")   # declare null hypothesis
```
]
 
.panel2-sw2-auto[

```
## Response: college (factor)
## Explanatory: finrela (factor)
## Null Hypothesis: independence
## # A tibble: 500 × 2
##    college   finrela          
##    <fct>     <fct>            
##  1 degree    below average    
##  2 no degree below average    
##  3 degree    below average    
##  4 no degree above average    
##  5 degree    above average    
##  6 no degree average          
##  7 no degree below average    
##  8 degree    above average    
##  9 degree    average          
## 10 no degree far below average
## # … with 490 more rows
```
…
Let's take a look at the ratings

count: false

.panel1-sw3-auto[

```r
*gss
```
]
 
.panel2-sw3-auto[

```
## # A tibble: 500 × 11
##     year   age sex    college   partyid hompop hours income class finrela weight
##    <dbl> <dbl> <fct>  <fct>     <fct>    <dbl> <dbl> <ord>  <fct> <fct>    <dbl>
##  1  2014    36 male   degree    ind          3    50 $2500… midd… below …  0.896
##  2  1994    34 female no degree rep          4    31 $2000… work… below …  1.08 
##  3  1998    24 male   degree    ind          1    40 $2500… work… below …  0.550
##  4  1996    42 male   no degree ind          4    40 $2500… work… above …  1.09 
##  5  1994    31 male   degree    rep          2    40 $2500… midd… above …  1.08 
##  6  1996    32 female no degree rep          4    53 $2500… midd… average  1.09 
##  7  1990    48 female no degree dem          2    32 $2500… work… below …  1.06 
##  8  2016    36 female degree    ind          1    20 $2500… midd… above …  0.478
##  9  2000    30 female degree    rep          5    40 $2500… midd… average  1.10 
## 10  1998    33 female no degree dem          2    40 $1500… work… far be…  0.550
## # … with 490 more rows
```
…
.panel1-sw3-auto[

```r
gss %>%
* specify(college ~ finrela)
```
]
 
.panel2-sw3-auto[

```
## Response: college (factor)
## Explanatory: finrela (factor)
## # A tibble: 500 × 2
##    college   finrela          
##    <fct>     <fct>            
##  1 degree    below average    
##  2 no degree below average    
##  3 degree    below average    
##  4 no degree above average    
##  5 degree    above average    
##  6 no degree average          
##  7 no degree below average    
##  8 degree    above average    
##  9 degree    average          
## 10 no degree far below average
## # … with 490 more rows
```
…
---

count: false

.panel1-sw4-auto[

```r
*gss
```
]
 
.panel2-sw4-auto[

```
## # A tibble: 500 × 11
##     year   age sex    college   partyid hompop hours income class finrela weight
##    <dbl> <dbl> <fct>  <fct>     <fct>    <dbl> <dbl> <ord>  <fct> <fct>    <dbl>
##  1  2014    36 male   degree    ind          3    50 $2500… midd… below …  0.896
##  2  1994    34 female no degree rep          4    31 $2000… work… below …  1.08 
##  3  1998    24 male   degree    ind          1    40 $2500… work… below …  0.550
##  4  1996    42 male   no degree ind          4    40 $2500… work… above …  1.09 
##  5  1994    31 male   degree    rep          2    40 $2500… midd… above …  1.08 
##  6  1996    32 female no degree rep          4    53 $2500… midd… average  1.09 
##  7  1990    48 female no degree dem          2    32 $2500… work… below …  1.06 
##  8  2016    36 female degree    ind          1    20 $2500… midd… above …  0.478
##  9  2000    30 female degree    rep          5    40 $2500… midd… average  1.10 
## 10  1998    33 female no degree dem          2    40 $1500… work… far be…  0.550
## # … with 490 more rows
```
…
.panel1-sw4-auto[

```r
gss %>%
* specify(college ~ finrela)
```
]
 
.panel2-sw4-auto[

```
## Response: college (factor)
## Explanatory: finrela (factor)
## # A tibble: 500 × 2
##    college   finrela          
##    <fct>     <fct>            
##  1 degree    below average    
##  2 no degree below average    
##  3 degree    below average    
##  4 no degree above average    
##  5 degree    above average    
##  6 no degree average          
##  7 no degree below average    
##  8 degree    above average    
##  9 degree    average          
## 10 no degree far below average
## # … with 490 more rows
```
…
```r
gss %>%
  specify(college ~ finrela) %>%
* hypothesise(null = "independence")
```
]
 
.panel2-sw4-auto[

```
## Response: college (factor)
## Explanatory: finrela (factor)
## Null Hypothesis: independence
## # A tibble: 500 × 2
##    college   finrela          
##    <fct>     <fct>            
##  1 degree    below average    
##  2 no degree below average    
##  3 degree    below average    
##  4 no degree above average    
##  5 degree    above average    
##  6 no degree average          
##  7 no degree below average    
##  8 degree    above average    
##  9 degree    average          
## 10 no degree far below average
## # … with 490 more rows
```
…
```r
gss %>%
  specify(college ~ finrela) %>%
  hypothesise(null = "independence") %>%
* generate(reps = 1000, type = "permute")
```
]
 
.panel2-sw4-auto[

```
## Response: college (factor)
## Explanatory: finrela (factor)
## Null Hypothesis: independence
## # A tibble: 500,000 × 3
## # Groups:   replicate [1,000]
##    college   finrela           replicate
##    <fct>     <fct>                 <int>
##  1 no degree below average             1
##  2 no degree below average             1
##  3 degree    below average             1
##  4 no degree above average             1
##  5 no degree above average             1
##  6 no degree average                   1
##  7 degree    below average             1
##  8 no degree above average             1
##  9 no degree average                   1
## 10 degree    far below average         1
## # … with 499,990 more rows
```
…
# `\(\chi^2\)` Goodness of Fit

count: false

.panel1-sw6-auto[

```r
*gss
```
]
 
.panel2-sw6-auto[

```
## # A tibble: 500 × 11
##     year   age sex    college   partyid hompop hours income class finrela weight
##    <dbl> <dbl> <fct>  <fct>     <fct>    <dbl> <dbl> <ord>  <fct> <fct>    <dbl>
##  1  2014    36 male   degree    ind          3    50 $2500… midd… below …  0.896
##  2  1994    34 female no degree rep          4    31 $2000… work… below …  1.08 
##  3  1998    24 male   degree    ind          1    40 $2500… work… below …  0.550
##  4  1996    42 male   no degree ind          4    40 $2500… work… above …  1.09 
##  5  1994    31 male   degree    rep          2    40 $2500… midd… above …  1.08 
##  6  1996    32 female no degree rep          4    53 $2500… midd… average  1.09 
##  7  1990    48 female no degree dem          2    32 $2500… work… below …  1.06 
##  8  2016    36 female degree    ind          1    20 $2500… midd… above …  0.478
##  9  2000    30 female degree    rep          5    40 $2500… midd… average  1.10 
## 10  1998    33 female no degree dem          2    40 $1500… work… far be…  0.550
## # … with 490 more rows
```
…
.panel1-sw6-auto[

```r
gss %>%
* specify(response = finrela)
```
]
 
.panel2-sw6-auto[

```
## Response: finrela (factor)
## # A tibble: 500 × 1
##    finrela          
##    <fct>            
##  1 below average    
##  2 below average    
##  3 below average    
##  4 above average    
##  5 above average    
##  6 average          
##  7 below average    
##  8 above average    
##  9 average          
## 10 far below average
## # … with 490 more rows
```
…
.panel2-sw6-auto[

```
## Response: finrela (factor)
## Null Hypothesis: point
## # A tibble: 500 × 1
##    finrela          
##    <fct>            
##  1 below average    
##  2 below average    
##  3 below average    
##  4 above average    
##  5 above average    
##  6 average          
##  7 below average    
##  8 above average    
##  9 average          
## 10 far below average
## # … with 490 more rows
```
…
count: false

.panel1-sw7-auto[

```r
*null_dist_gof
```
]
 
.panel2-sw7-auto[

```
## Response: finrela (factor)
## Null Hypothesis: point
## # A tibble: 1,000 × 2
##    replicate   stat
##    <fct>      <dbl>
##  1 1          8.22 
##  2 2          1.72 
##  3 3          1.72 
##  4 4          6.26 
##  5 5         15.4  
##  6 6          0.928
##  7 7          7.46 
##  8 8          2.87 
##  9 9          1    
## 10 10         5.63 
## # … with 990 more rows
```
…
---

count: false

.panel1-sw8-auto[

```r
*gss
```
]
 
.panel2-sw8-auto[

```
## # A tibble: 500 × 11
##     year   age sex    college   partyid hompop hours income class finrela weight
##    <dbl> <dbl> <fct>  <fct>     <fct>    <dbl> <dbl> <ord>  <fct> <fct>    <dbl>
##  1  2014    36 male   degree    ind          3    50 $2500… midd… below …  0.896
##  2  1994    34 female no degree rep          4    31 $2000… work… below …  1.08 
##  3  1998    24 male   degree    ind          1    40 $2500… work… below …  0.550
##  4  1996    42 male   no degree ind          4    40 $2500… work… above …  1.09 
##  5  1994    31 male   degree    rep          2    40 $2500… midd… above …  1.08 
##  6  1996    32 female no degree rep          4    53 $2500… midd… average  1.09 
##  7  1990    48 female no degree dem          2    32 $2500… work… below …  1.06 
##  8  2016    36 female degree    ind          1    20 $2500… midd… above …  0.478
##  9  2000    30 female degree    rep          5    40 $2500… midd… average  1.10 
## 10  1998    33 female no degree dem          2    40 $1500… work… far be…  0.550
## # … with 490 more rows
```
…
# Generate the null distribution using randomization

count: false

.panel1-sw9-auto[

```r
*gss
```
]
 
.panel2-sw9-auto[

```
## # A tibble: 500 × 11
##     year   age sex    college   partyid hompop hours income class finrela weight
##    <dbl> <dbl> <fct>  <fct>     <fct>    <dbl> <dbl> <ord>  <fct> <fct>    <dbl>
##  1  2014    36 male   degree    ind          3    50 $2500… midd… below …  0.896
##  2  1994    34 female no degree rep          4    31 $2000… work… below …  1.08 
##  3  1998    24 male   degree    ind          1    40 $2500… work… below …  0.550
##  4  1996    42 male   no degree ind          4    40 $2500… work… above …  1.09 
##  5  1994    31 male   degree    rep          2    40 $2500… midd… above …  1.08 
##  6  1996    32 female no degree rep          4    53 $2500… midd… average  1.09 
##  7  1990    48 female no degree dem          2    32 $2500… work… below …  1.06 
##  8  2016    36 female degree    ind          1    20 $2500… midd… above …  0.478
##  9  2000    30 female degree    rep          5    40 $2500… midd… average  1.10 
## 10  1998    33 female no degree dem          2    40 $1500… work… far be…  0.550
## # … with 490 more rows
```
…
.panel1-sw9-auto[

```r
gss %>%
* specify(college ~ finrela)
```
]
 
.panel2-sw9-auto[

```
## Response: college (factor)
## Explanatory: finrela (factor)
## # A tibble: 500 × 2
##    college   finrela          
##    <fct>     <fct>            
##  1 degree    below average    
##  2 no degree below average    
##  3 degree    below average    
##  4 no degree above average    
##  5 degree    above average    
##  6 no degree average          
##  7 no degree below average    
##  8 degree    above average    
##  9 degree    average          
## 10 no degree far below average
## # … with 490 more rows
```
…
```r
gss %>%
  specify(college ~ finrela) %>%
* hypothesize(null = "independence")
```
]
 
.panel2-sw9-auto[

```
## Response: college (factor)
## Explanatory: finrela (factor)
## Null Hypothesis: independence
## # A tibble: 500 × 2
##    college   finrela          
##    <fct>     <fct>            
##  1 degree    below average    
##  2 no degree below average    
##  3 degree    below average    
##  4 no degree above average    
##  5 degree    above average    
##  6 no degree average          
##  7 no degree below average    
##  8 degree    above average    
##  9 degree    average          
## 10 no degree far below average
## # … with 490 more rows
```
…
```r
gss %>%
  specify(college ~ finrela) %>%
  hypothesize(null = "independence") %>%
* generate(reps = 1000, type = "permute")
```
]
 
.panel2-sw9-auto[

```
## Response: college (factor)
## Explanatory: finrela (factor)
## Null Hypothesis: independence
## # A tibble: 500,000 × 3
## # Groups:   replicate [1,000]
##    college   finrela           replicate
##    <fct>     <fct>                 <int>
##  1 degree    below average             1
##  2 degree    below average             1
##  3 no degree below average             1
##  4 degree    above average             1
##  5 degree    above average             1
##  6 no degree average                   1
##  7 no degree below average             1
##  8 degree    above average             1
##  9 no degree average                   1
## 10 degree    far below average         1
## # … with 499,990 more rows
```
…
.panel2-sw9-auto[

```
## Response: college (factor)
## Explanatory: finrela (factor)
## Null Hypothesis: independence
## # A tibble: 1,000 × 2
##    replicate  stat
##        <int> <dbl>
##  1         1  3.29
##  2         2  6.72
##  3         3  3.02
##  4         4  2.45
##  5         5  1.10
##  6         6  4.49
##  7         7  1.60
##  8         8  3.13
##  9         9 12.1 
## 10        10  2.33
## # … with 990 more rows
```
…
# Generate the null distribution using theory based methods

count: false

.panel1-sw10-auto[

```r
*gss
```
]
 
.panel2-sw10-auto[

```
## # A tibble: 500 × 11
##     year   age sex    college   partyid hompop hours income class finrela weight
##    <dbl> <dbl> <fct>  <fct>     <fct>    <dbl> <dbl> <ord>  <fct> <fct>    <dbl>
##  1  2014    36 male   degree    ind          3    50 $2500… midd… below …  0.896
##  2  1994    34 female no degree rep          4    31 $2000… work… below …  1.08 
##  3  1998    24 male   degree    ind          1    40 $2500… work… below …  0.550
##  4  1996    42 male   no degree ind          4    40 $2500… work… above …  1.09 
##  5  1994    31 male   degree    rep          2    40 $2500… midd… above …  1.08 
##  6  1996    32 female no degree rep          4    53 $2500… midd… average  1.09 
##  7  1990    48 female no degree dem          2    32 $2500… work… below …  1.06 
##  8  2016    36 female degree    ind          1    20 $2500… midd… above …  0.478
##  9  2000    30 female degree    rep          5    40 $2500… midd… average  1.10 
## 10  1998    33 female no degree dem          2    40 $1500… work… far be…  0.550
## # … with 490 more rows
```
…
.panel1-sw10-auto[

```r
gss %>%
* specify(college ~ finrela)
```
]
 
.panel2-sw10-auto[

```
## Response: college (factor)
## Explanatory: finrela (factor)
## # A tibble: 500 × 2
##    college   finrela          
##    <fct>     <fct>            
##  1 degree    below average    
##  2 no degree below average    
##  3 degree    below average    
##  4 no degree above average    
##  5 degree    above average    
##  6 no degree average          
##  7 no degree below average    
##  8 degree    above average    
##  9 degree    average          
## 10 no degree far below average
## # … with 490 more rows
```
…
.panel1-sw11-auto[

```r
*null_dist_sim
```
]
 
.panel2-sw11-auto[

```
## Response: college (factor)
## Explanatory: finrela (factor)
## Null Hypothesis: independence
## # A tibble: 1,000 × 2
##    replicate   stat
##        <int>  <dbl>
##  1         1  3.86 
##  2         2  3.79 
##  3         3  9.96 
##  4         4  2.72 
##  5         5  3.20 
##  6         6  0.695
##  7         7  7.92 
##  8         8  7.79 
##  9         9 10.6  
## 10        10  6.17 
## # … with 990 more rows
```
…
