Topic Modeling
…
.panel1-sw1a-auto[

```r
exwdogs %>%
read_lines() %>%  # Parse text into individual lines
*as_tibble_col("text")   # Create a single tidy column
```
]
 
.panel2-sw1a-auto[

```
## # A tibble: 218 × 1
##    text                                                                                                
##    <chr>                                                                                               
##  1 "Data Exemplar for use with:"                                                                       
##  2 ""                                                                                                  
##  3 "Encounters With Dogs as an Exercise in Analysing"                                                  
##  4 "Multi-Species Ethnography"                                                                         
##  5 ""                                                                                                  
##  6 "Data Collected by: Dr. Samantha Hurn"                                                              
##  7 ""                                                                                                  
##  8 "Included are three forms of data from the same setting at various stages of the analysis process. …
##  9 "first are the initial rough fieldnotes taken by Samantha whilst conducting participant observation"
## 10 "in the Sri Ranganatha temple, one of three temples at the Skanda Vale ashram in west Wales. The"   
## # … with 208 more rows
```
…
.panel1-sw1a-auto[

```r
exwdogs %>%
read_lines() %>%  # Parse text into individual lines
as_tibble_col("text") %>%  # Create a single tidy column
*slice(24:n())   # Remove unnecessary text
```
]
 
.panel2-sw1a-auto[

```
## # A tibble: 195 × 1
##    text                                                                                                
##    <chr>                                                                                               
##  1 Crazy paving day 2. Sri Ranganatha temple. Unbearably hot. Joined by Shakti – thirsty, drank my     
##  2 cement mixing water, then came over for scratches. Overwhelmed by how much I miss Max. First        
##  3 time I have touched another dog since his death. Strong mnemonic (smell, touch – do Bernese         
##  4 Mountain Dogs have double coat too? Felt like it …). She seemed to recognise something was up.      
##  5 Very much a person like Max. Cried and made her fur damp. She stayed with me ’til I stopped         
##  6 crying, then went to entrance and lay down. So hot. How does she cope in here? Why does she         
##  7 come inside? And the incense? Need to look into canine olfaction and hearing … Would dogs find      
##  8 the pujas stressful (incense and bell ringing – loud and smelly)?! What about animals in temples?   
##  9 Common in south Asia. I like being in here despite the heat – meditative, calming. Good place for   
## 10 seva, or is it if I get something in return? Is enjoying the work contrary to selfless service? Swa…
## # … with 185 more rows
```
…
.panel1-sw1a-auto[

```r
exwdogs %>%
read_lines() %>%  # Parse text into individual lines
as_tibble_col("text") %>%  # Create a single tidy column
slice(24:n()) %>%  # Remove unnecessary text
*mutate(text = textclean::replace_non_ascii(text))   # Convert to a standard format
```
]
 
.panel2-sw1a-auto[

```
## # A tibble: 195 × 1
##    text                                                                                                
##    <chr>                                                                                               
##  1 Crazy paving day 2. Sri Ranganatha temple. Unbearably hot. Joined by Shakti - thirsty, drank my     
##  2 cement mixing water, then came over for scratches. Overwhelmed by how much I miss Max. First        
##  3 time I have touched another dog since his death. Strong mnemonic (smell, touch - do Bernese         
##  4 Mountain Dogs have double coat too? Felt like it ...). She seemed to recognise something was up.    
##  5 Very much a person like Max. Cried and made her fur damp. She stayed with me 'til I stopped         
##  6 crying, then went to entrance and lay down. So hot. How does she cope in here? Why does she         
##  7 come inside? And the incense? Need to look into canine olfaction and hearing ... Would dogs find    
##  8 the pujas stressful (incense and bell ringing - loud and smelly)?! What about animals in temples?   
##  9 Common in south Asia. I like being in here despite the heat - meditative, calming. Good place for   
## 10 seva, or is it if I get something in return? Is enjoying the work contrary to selfless service? Swa…
## # … with 185 more rows
```
…
```r
exwdogs %>%
read_lines() %>%  # Parse text into individual lines
as_tibble_col("text") %>%  # Create a single tidy column
slice(24:n()) %>%  # Remove unnecessary text
mutate(text = textclean::replace_non_ascii(text)) %>%  # Convert to a standard format
*mutate(text = str_to_lower(text))   # Convert all words to lower case
```
]
 
.panel2-sw1a-auto[

```
## # A tibble: 195 × 1
##    text                                                                                                
##    <chr>                                                                                               
##  1 crazy paving day 2. sri ranganatha temple. unbearably hot. joined by shakti - thirsty, drank my     
##  2 cement mixing water, then came over for scratches. overwhelmed by how much i miss max. first        
##  3 time i have touched another dog since his death. strong mnemonic (smell, touch - do bernese         
##  4 mountain dogs have double coat too? felt like it ...). she seemed to recognise something was up.    
##  5 very much a person like max. cried and made her fur damp. she stayed with me 'til i stopped         
##  6 crying, then went to entrance and lay down. so hot. how does she cope in here? why does she         
##  7 come inside? and the incense? need to look into canine olfaction and hearing ... would dogs find    
##  8 the pujas stressful (incense and bell ringing - loud and smelly)?! what about animals in temples?   
##  9 common in south asia. i like being in here despite the heat - meditative, calming. good place for   
## 10 seva, or is it if i get something in return? is enjoying the work contrary to selfless service? swa…
## # … with 185 more rows
```
…
```r
exwdogs %>%
read_lines() %>%  # Parse text into individual lines
as_tibble_col("text") %>%  # Create a single tidy column
slice(24:n()) %>%  # Remove unnecessary text
mutate(text = textclean::replace_non_ascii(text)) %>%  # Convert to a standard format
mutate(text = str_to_lower(text)) %>%  # Convert all words to lower case
*mutate(text = str_remove_all(text, "[[:digit:]]"))   # Remove all numbers
```
]
 
.panel2-sw1a-auto[

```
## # A tibble: 195 × 1
##    text                                                                                                
##    <chr>                                                                                               
##  1 crazy paving day . sri ranganatha temple. unbearably hot. joined by shakti - thirsty, drank my      
##  2 cement mixing water, then came over for scratches. overwhelmed by how much i miss max. first        
##  3 time i have touched another dog since his death. strong mnemonic (smell, touch - do bernese         
##  4 mountain dogs have double coat too? felt like it ...). she seemed to recognise something was up.    
##  5 very much a person like max. cried and made her fur damp. she stayed with me 'til i stopped         
##  6 crying, then went to entrance and lay down. so hot. how does she cope in here? why does she         
##  7 come inside? and the incense? need to look into canine olfaction and hearing ... would dogs find    
##  8 the pujas stressful (incense and bell ringing - loud and smelly)?! what about animals in temples?   
##  9 common in south asia. i like being in here despite the heat - meditative, calming. good place for   
## 10 seva, or is it if i get something in return? is enjoying the work contrary to selfless service? swa…
## # … with 185 more rows
```
…
.panel2-sw1a-auto[

```
## # A tibble: 195 × 1
##    text                                                                                              
##    <chr>                                                                                             
##  1 crazy paving day  sri ranganatha temple unbearably hot joined by shakti  thirsty drank my         
##  2 cement mixing water then came over for scratches overwhelmed by how much i miss max first         
##  3 time i have touched another dog since his death strong mnemonic smell touch  do bernese           
##  4 mountain dogs have double coat too felt like it  she seemed to recognise something was up         
##  5 very much a person like max cried and made her fur damp she stayed with me til i stopped          
##  6 crying then went to entrance and lay down so hot how does she cope in here why does she           
##  7 come inside and the incense need to look into canine olfaction and hearing  would dogs find       
##  8 the pujas stressful incense and bell ringing  loud and smelly what about animals in temples       
##  9 common in south asia i like being in here despite the heat  meditative calming good place for     
## 10 seva or is it if i get something in return is enjoying the work contrary to selfless service swami
## # … with 185 more rows
```
…
.panel2-sw1a-auto[

```
## # A tibble: 195 × 1
##    text                                                                                              
##    <chr>                                                                                             
##  1 crazy paving day  sri ranganatha temple unbearably hot joined by shakti  thirsty drank my         
##  2 cement mixing water then came over for scratches overwhelmed by how much i miss max first         
##  3 time i have touched another dog since his death strong mnemonic smell touch  do bernese           
##  4 mountain dogs have double coat too felt like it  she seemed to recognise something was up         
##  5 very much a person like max cried and made her fur damp she stayed with me til i stopped          
##  6 crying then went to entrance and lay down so hot how does she cope in here why does she           
##  7 come inside and the incense need to look into canine olfaction and hearing  would dogs find       
##  8 the pujas stressful incense and bell ringing  loud and smelly what about animals in temples       
##  9 common in south asia i like being in here despite the heat  meditative calming good place for     
## 10 seva or is it if i get something in return is enjoying the work contrary to selfless service swami
## # … with 185 more rows
```
…
.panel2-sw1a-auto[

```
## # A tibble: 195 × 1
##    text                                                                                              
##    <chr>                                                                                             
##  1 crazy paving day  temple unbearably hot joined by shakti  thirsty drank my                        
##  2 cement mixing water then came over for scratches overwhelmed by how much i miss max first         
##  3 time i have touched another dog since his death strong mnemonic smell touch  do bernese           
##  4 mountain dogs have double coat too felt like it  she seemed to recognise something was up         
##  5 very much a person like max cried and made her fur damp she stayed with me til i stopped          
##  6 crying then went to entrance and lay down so hot how does she cope in here why does she           
##  7 come inside and the incense need to look into canine olfaction and hearing  would dogs find       
##  8 the pujas stressful incense and bell ringing  loud and smelly what about animals in temples       
##  9 common in south asia i like being in here despite the heat  meditative calming good place for     
## 10 seva or is it if i get something in return is enjoying the work contrary to selfless service swami
## # … with 185 more rows
```
…
.panel2-sw1a-auto[

```
## # A tibble: 195 × 1
##    text                                                                                              
##    <chr>                                                                                             
##  1 crazy paving day  temple unbearably hot joined by dog  thirsty drank my                           
##  2 cement mixing water then came over for scratches overwhelmed by how much i miss max first         
##  3 time i have touched another dog since his death strong mnemonic smell touch  do bernese           
##  4 mountain dogs have double coat too felt like it  she seemed to recognise something was up         
##  5 very much a person like max cried and made her fur damp she stayed with me til i stopped          
##  6 crying then went to entrance and lay down so hot how does she cope in here why does she           
##  7 come inside and the incense need to look into canine olfaction and hearing  would dogs find       
##  8 the pujas stressful incense and bell ringing  loud and smelly what about animals in temples       
##  9 common in south asia i like being in here despite the heat  meditative calming good place for     
## 10 seva or is it if i get something in return is enjoying the work contrary to selfless service swami
## # … with 185 more rows
```
…
.panel2-sw1a-auto[

```
## # A tibble: 195 × 1
##    text                                                                                              
##    <chr>                                                                                             
##  1 crazy paving day  temple unbearably hot joined by dog  thirsty drank my                           
##  2 cement mixing water then came over for scratches overwhelmed by how much i miss max first         
##  3 time i have touched another dog since his death strong mnemonic smell touch  do bernese           
##  4 mountain dogs have double coat too felt like it  she seemed to recognise something was up         
##  5 very much a person like max cried and made her fur damp she stayed with me til i stopped          
##  6 crying then went to entrance and lay down so hot how does she cope in here why does she           
##  7 come inside and the incense need to look into canine olfaction and hearing  would dogs find       
##  8 the pujas stressful incense and bell ringing  loud and smelly what about animals in temples       
##  9 common in south asia i like being in here despite the heat  meditative calming good place for     
## 10 seva or is it if i get something in return is enjoying the work contrary to selfless service swami
## # … with 185 more rows
```
…
.panel2-sw1a-auto[

```
## # A tibble: 195 × 1
##    text                                                                                            
##    <chr>                                                                                           
##  1 crazy paving day  temple unbearably hot joined by dog  thirsty drank my                         
##  2 cement mixing water then came over for scratches overwhelmed by how much i miss max first       
##  3 time i have touched another dog since his death strong mnemonic smell touch  do bernese         
##  4 mountain dogs have double coat too felt like it  she seemed to recognise something was up       
##  5 very much a person like max cried and made her fur damp she stayed with me til i stopped        
##  6 crying then went to entrance and lay down so hot how does she cope in here why does she         
##  7 come inside and the incense need to look into canine olfaction and hearing  would dogs find     
##  8 the pujas stressful incense and bell ringing  loud and smelly what about animals in temples     
##  9 common in south asia i like being in here despite the heat  meditative calming good place for   
## 10 seva or is it if i get something in return is enjoying the work contrary to selfless service dog
## # … with 185 more rows
```
…
.panel2-sw1a-auto[

```
## # A tibble: 195 × 1
##    text                                                                                            
##    <chr>                                                                                           
##  1 crazy paving day  temple unbearably hot joined by dog  thirsty drank my                         
##  2 cement mixing water then came over for scratches overwhelmed by how much i miss dog first       
##  3 time i have touched another dog since his death strong mnemonic smell touch  do bernese         
##  4 mountain dogs have double coat too felt like it  she seemed to recognise something was up       
##  5 very much a person like dog cried and made her fur damp she stayed with me til i stopped        
##  6 crying then went to entrance and lay down so hot how does she cope in here why does she         
##  7 come inside and the incense need to look into canine olfaction and hearing  would dogs find     
##  8 the pujas stressful incense and bell ringing  loud and smelly what about animals in temples     
##  9 common in south asia i like being in here despite the heat  meditative calming good place for   
## 10 seva or is it if i get something in return is enjoying the work contrary to selfless service dog
## # … with 185 more rows
```
…
.panel2-sw1a-auto[

```
## # A tibble: 195 × 1
##    text                                                                                         
##    <chr>                                                                                        
##  1 crazy pave day temple unbearably hot join by dog thirsty drink my                            
##  2 cement mix water then come over for scratch overwhelm by how much i miss dog first           
##  3 time i have touch another dog since his death strong mnemonic smell touch do bernese         
##  4 mountain dog have double coat too feel like it she seem to recognise something be up         
##  5 very much a person like dog cry and make her fur damp she stay with me til i stop            
##  6 cry then go to entrance and lie down so hot how do she cope in here why do she               
##  7 come inside and the incense need to look into canine olfaction and hear would dog find       
##  8 the pujas stressful incense and bell ring loud and smelly what about animal in temple        
##  9 common in south asia i like be in here despite the heat meditative calm good place for       
## 10 seva or be it if i get something in return be enjoy the work contrary to selfless service dog
## # … with 185 more rows
```
…
