80% of Your Time with Data is Dedicated to Wrangling! | Measurement/Evaluation in Educational Psychology
…
You should have noticed the Help tab on the lower right hand window is prominent and there is a significant amount of information explaining the data set including the variable names and corresponding descriptions.

Data Files

Data sets used in R are typically accessible in one of two ways.

They can be distributed within R packages. These are often smaller data sets used in examples, interactive guides, or tutorials within packages. These are loaded with the data() function. For example you can load UN data on demographic statistics from the fivethirtyeight library, which has plenty of data sets used by the poll analysis site FiveThirtyEight. To see the entire list, you can run the command data(). In this case, the drinks data set looks like something I may want to look at. To view the data set, run

data("drinks", package = "fivethirtyeight")

followed by

drinks

## # A tibble: 193 x 5
##    country      beer_servings spirit_servings wine_servings total_litres_of_pur…
##    <chr>                <int>           <int>         <int>                <dbl>
##  1 Afghanistan              0               0             0                  0  
##  2 Albania                 89             132            54                  4.9
##  3 Algeria                 25               0            14                  0.7
##  4 Andorra                245             138           312                 12.4
##  5 Angola                 217              57            45                  5.9
##  6 Antigua & B…           102             128            45                  4.9
##  7 Argentina              193              25           221                  8.3
##  8 Armenia                 21             179            11                  3.8
##  9 Australia              261              72           212                 10.4
## 10 Austria                279              75           191                  9.7
## # … with 183 more rows
…
## Parsed with column specification:
## cols(
##   country = col_character(),
##   beer_servings = col_double(),
##   spirit_servings = col_double(),
##   wine_servings = col_double(),
##   total_litres_of_pure_alcohol = col_double()
## )

followed by

drinks

## # A tibble: 193 x 5
##    country      beer_servings spirit_servings wine_servings total_litres_of_pur…
##    <chr>                <dbl>           <dbl>         <dbl>                <dbl>
##  1 Afghanistan              0               0             0                  0  
##  2 Albania                 89             132            54                  4.9
##  3 Algeria                 25               0            14                  0.7
##  4 Andorra                245             138           312                 12.4
##  5 Angola                 217              57            45                  5.9
##  6 Antigua & B…           102             128            45                  4.9
##  7 Argentina              193              25           221                  8.3
##  8 Armenia                 21             179            11                  3.8
##  9 Australia              261              72           212                 10.4
## 10 Austria                279              75           191                  9.7
## # … with 183 more rows
…
