The Not so Tiny One Sample t-test
…
Compare the differences between the average percent of college educated adults in Ohio versus Michigan

count: false

.panel1-sw1-auto[

```r
*midwest
```
]
 
.panel2-sw1-auto[

```
## # A tibble: 437 × 28
##      PID county  state  area poptotal popdensity popwhite popblack popamerindian
##    <int> <chr>   <chr> <dbl>    <int>      <dbl>    <int>    <int>         <int>
##  1   561 ADAMS   IL    0.052    66090      1271.    63917     1702            98
##  2   562 ALEXAN… IL    0.014    10626       759      7054     3496            19
##  3   563 BOND    IL    0.022    14991       681.    14477      429            35
##  4   564 BOONE   IL    0.017    30806      1812.    29344      127            46
##  5   565 BROWN   IL    0.018     5836       324.     5264      547            14
##  6   566 BUREAU  IL    0.05     35688       714.    35157       50            65
##  7   567 CALHOUN IL    0.017     5322       313.     5298        1             8
##  8   568 CARROLL IL    0.027    16805       622.    16519      111            30
##  9   569 CASS    IL    0.024    13437       560.    13384       16             8
## 10   570 CHAMPA… IL    0.058   173025      2983.   146506    16559           331
## # … with 427 more rows, and 19 more variables: popasian <int>, popother <int>,
## #   percwhite <dbl>, percblack <dbl>, percamerindan <dbl>, percasian <dbl>,
## #   percother <dbl>, popadults <int>, perchsd <dbl>, percollege <dbl>,
## #   percprof <dbl>, poppovertyknown <int>, percpovertyknown <dbl>,
## #   percbelowpoverty <dbl>, percchildbelowpovert <dbl>, percadultpoverty <dbl>,
## #   percelderlypoverty <dbl>, inmetro <int>, category <chr>
```
…
---
count: false

.panel1-sw1-auto[

```r
midwest %>%
* filter(state == "OH" | state == "MI")
```
]
 
.panel2-sw1-auto[

```
## # A tibble: 171 × 28
##      PID county  state  area poptotal popdensity popwhite popblack popamerindian
##    <int> <chr>   <chr> <dbl>    <int>      <dbl>    <int>    <int>         <int>
##  1  1197 ALCONA  MI    0.041    10145       247.    10026       27            56
##  2  1198 ALGER   MI    0.051     8972       176.     8422      213           304
##  3  1199 ALLEGAN MI    0.049    90509      1847.    86760     1448           543
##  4  1200 ALPENA  MI    0.034    30605       900.    30372       35            93
##  5  1201 ANTRIM  MI    0.031    18185       587.    17895       23           211
##  6  1202 ARENAC  MI    0.021    14931       711     14695       10           139
##  7  1203 BARAGA  MI    0.054     7954       147.     6971       49           918
##  8  1204 BARRY   MI    0.034    50057      1472.    49429      104           188
##  9  1205 BAY     MI    0.026   111723      4297.   107747     1242           726
## 10  1206 BENZIE  MI    0.02     12200       610     11863       30           237
## # … with 161 more rows, and 19 more variables: popasian <int>, popother <int>,
## #   percwhite <dbl>, percblack <dbl>, percamerindan <dbl>, percasian <dbl>,
## #   percother <dbl>, popadults <int>, perchsd <dbl>, percollege <dbl>,
## #   percprof <dbl>, poppovertyknown <int>, percpovertyknown <dbl>,
## #   percbelowpoverty <dbl>, percchildbelowpovert <dbl>, percadultpoverty <dbl>,
## #   percelderlypoverty <dbl>, inmetro <int>, category <chr>
```
…
.panel1-sw1-auto[

```r
midwest %>%
  filter(state == "OH" | state == "MI") %>%
* select(state, percollege)
```
]
 
.panel2-sw1-auto[

```
## # A tibble: 171 × 2
##    state percollege
##    <chr>      <dbl>
##  1 MI          14.1
##  2 MI          16.3
##  3 MI          18.1
##  4 MI          18.9
##  5 MI          19.0
##  6 MI          11.8
##  7 MI          14.6
##  8 MI          17.3
##  9 MI          18.2
## 10 MI          21.4
## # … with 161 more rows
```
…
