…
What are the steps?

Generally this is what you have to do

Tokenize

Tokenization is process of taking a bunch of characters (i.e. strings) and chopping the up into little pieces called tokens. Notice that actual “words” are not necessary here. This is important because it will allow us to use parts of words as you’ll see soon!

tokens <- 
  tibble(text = fileText) %>% 
  unnest_tokens(word, text)

tokens

## # A tibble: 4,822 × 1
##    word         
##    <chr>        
##  1 mr           
##  2 speaker      
##  3 mr           
##  4 president    
##  5 and          
##  6 distinguished
##  7 members      
##  8 of           
##  9 the          
## 10 house        
## # … with 4,812 more rows

Filter Stop Words

In text analysis, we tend to remove stop words which are terms that are not useful for an analysis like “and”, “of”, “the”, etc. Here we use anti_join() to get rid of those terms from our data set.

data(stop_words)

tidy_tokens <- 
  tokens %>%
  anti_join(stop_words)

tidy_tokens

## # A tibble: 1,886 × 1
##    word         
##    <chr>        
##  1 speaker      
##  2 president    
##  3 distinguished
##  4 house        
##  5 senate       
##  6 honored      
##  7 guests       
##  8 fellow       
##  9 citizens     
## 10 3            
## # … with 1,876 more rows

Let’s see a count of the remaining terms

tidy_tokens %>%
  count(word, sort = TRUE) 

## # A tibble: 1,097 × 2
##    word          n
##    <chr>     <int>
##  1 america      24
##  2 tonight      21
##  3 budget       17
##  4 future       15
##  5 time         15
##  6 people       13
##  7 nation       11
##  8 congress     10
##  9 hope         10
## 10 americans     9
## # … with 1,087 more rows
…
for(i in seq_along(titles)) {
  
  clean <- 
    tibble(chapter = seq_along(books[[i]]),
           text = books[[i]]) %>%
    unnest_tokens(word, text) %>%
    mutate(book = titles[i]) %>%
    select(book, everything())
  
  series <- rbind(series, clean)
}

series 

## # A tibble: 1,089,386 × 3
##    book                chapter word   
##    <chr>                 <int> <chr>  
##  1 Philosopher's Stone       1 the    
##  2 Philosopher's Stone       1 boy    
##  3 Philosopher's Stone       1 who    
##  4 Philosopher's Stone       1 lived  
##  5 Philosopher's Stone       1 mr     
##  6 Philosopher's Stone       1 and    
##  7 Philosopher's Stone       1 mrs    
##  8 Philosopher's Stone       1 dursley
##  9 Philosopher's Stone       1 of     
## 10 Philosopher's Stone       1 number 
## # … with 1,089,376 more rows

# set factor to keep books in release order
reverse_series <- 
  series %>%
  mutate(book = factor(book, 
                       levels = rev(titles))) %>%
  arrange(book)

reverse_series

## # A tibble: 1,089,386 × 3
##    book            chapter word    
##    <fct>             <int> <chr>   
##  1 Deathly Hallows       1 the     
##  2 Deathly Hallows       1 two     
##  3 Deathly Hallows       1 men     
##  4 Deathly Hallows       1 appeared
##  5 Deathly Hallows       1 out     
##  6 Deathly Hallows       1 of      
##  7 Deathly Hallows       1 nowhere 
##  8 Deathly Hallows       1 a       
##  9 Deathly Hallows       1 few     
## 10 Deathly Hallows       1 yards   
## # … with 1,089,376 more rows

We can get simple counts for each word using the count function. The word “the” occurs 51593 times in the Harry Potter series.

reverse_series %>% 
  count(word, sort = TRUE)

## # A tibble: 24,475 × 2
##    word      n
##    <chr> <int>
##  1 the   51593
##  2 and   27430
##  3 to    26985
##  4 of    21802
##  5 a     20966
##  6 he    20322
##  7 harry 16557
##  8 was   15631
##  9 said  14398
## 10 his   14264
## # … with 24,465 more rows
…
for(i in seq_along(titles)) {
  
  temp <- tibble(chapter = seq_along(books[[i]]),
                  text = books[[i]]) %>%
    unnest_tokens(bigram, text, token = "ngrams", n = 2) %>%
    ## Here we tokenize each chapter into bigrams
    mutate(book = titles[i]) %>%
    select(book, everything())
  
  bigram_series <- rbind(bigram_series, temp)
}

bigram_series

## # A tibble: 1,089,186 × 3
##    book                chapter bigram     
##    <chr>                 <int> <chr>      
##  1 Philosopher's Stone       1 the boy    
##  2 Philosopher's Stone       1 boy who    
##  3 Philosopher's Stone       1 who lived  
##  4 Philosopher's Stone       1 lived mr   
##  5 Philosopher's Stone       1 mr and     
##  6 Philosopher's Stone       1 and mrs    
##  7 Philosopher's Stone       1 mrs dursley
##  8 Philosopher's Stone       1 dursley of 
##  9 Philosopher's Stone       1 of number  
## 10 Philosopher's Stone       1 number four
## # … with 1,089,176 more rows

# set factor to keep books in release order
reverse_bigram_series <- 
  bigram_series %>%
  mutate(book = factor(book, levels = rev(unique(book)))) %>%
  arrange(book)

reverse_bigram_series

## # A tibble: 1,089,186 × 3
##    book            chapter bigram      
##    <fct>             <int> <chr>       
##  1 Deathly Hallows       1 the two     
##  2 Deathly Hallows       1 two men     
##  3 Deathly Hallows       1 men appeared
##  4 Deathly Hallows       1 appeared out
##  5 Deathly Hallows       1 out of      
##  6 Deathly Hallows       1 of nowhere  
##  7 Deathly Hallows       1 nowhere a   
##  8 Deathly Hallows       1 a few       
##  9 Deathly Hallows       1 few yards   
## 10 Deathly Hallows       1 yards apart 
## # … with 1,089,176 more rows

Again, we can use the count function to find the most common bigrams in the series.

reverse_bigram_series %>%
  count(bigram, 
        sort = TRUE)

## # A tibble: 340,021 × 2
##    bigram         n
##    <chr>      <int>
##  1 of the      4895
##  2 in the      3571
##  3 said harry  2626
##  4 he was      2490
##  5 at the      2435
##  6 to the      2386
##  7 on the      2359
##  8 he had      2138
##  9 it was      2123
## 10 out of      1911
## # … with 340,011 more rows

As we saw with the single words, most of the most common bigrams contain stop-words. Let’s remove those from our bigram tibble.

# separate the terms to edit them out
bigrams_separated <- 
  reverse_bigram_series %>%
  separate(bigram, 
           c("word1", "word2"), 
           sep = " ")

bigrams_separated

## # A tibble: 1,089,186 × 4
##    book            chapter word1    word2   
##    <fct>             <int> <chr>    <chr>   
##  1 Deathly Hallows       1 the      two     
##  2 Deathly Hallows       1 two      men     
##  3 Deathly Hallows       1 men      appeared
##  4 Deathly Hallows       1 appeared out     
##  5 Deathly Hallows       1 out      of      
##  6 Deathly Hallows       1 of       nowhere 
##  7 Deathly Hallows       1 nowhere  a       
##  8 Deathly Hallows       1 a        few     
##  9 Deathly Hallows       1 few      yards   
## 10 Deathly Hallows       1 yards    apart   
## # … with 1,089,176 more rows

# remove stop words from each
bigrams_filtered <- 
  bigrams_separated %>%
  filter(!word1 %in% stop_words$word) %>%
  filter(!word2 %in% stop_words$word)

bigrams_filtered

## # A tibble: 137,629 × 4
##    book            chapter word1     word2    
##    <fct>             <int> <chr>     <chr>    
##  1 Deathly Hallows       1 narrow    moonlit  
##  2 Deathly Hallows       1 moonlit   lane     
##  3 Deathly Hallows       1 wands     directed 
##  4 Deathly Hallows       1 other's   chests   
##  5 Deathly Hallows       1 wands     beneath  
##  6 Deathly Hallows       1 started   walking  
##  7 Deathly Hallows       1 walking   briskly  
##  8 Deathly Hallows       1 direction news     
##  9 Deathly Hallows       1 replied   severus  
## 10 Deathly Hallows       1 severus   snape.the
## # … with 137,619 more rows

# merge the word columns back together to form bigrams
bigrams_united <- 
  bigrams_filtered %>%
  unite(bigram, word1, word2, sep = " ")

bigrams_united

## # A tibble: 137,629 × 3
##    book            chapter bigram           
##    <fct>             <int> <chr>            
##  1 Deathly Hallows       1 narrow moonlit   
##  2 Deathly Hallows       1 moonlit lane     
##  3 Deathly Hallows       1 wands directed   
##  4 Deathly Hallows       1 other's chests   
##  5 Deathly Hallows       1 wands beneath    
##  6 Deathly Hallows       1 started walking  
##  7 Deathly Hallows       1 walking briskly  
##  8 Deathly Hallows       1 direction news   
##  9 Deathly Hallows       1 replied severus  
## 10 Deathly Hallows       1 severus snape.the
## # … with 137,619 more rows

# count the updated bigrams
bigram_counts <- 
  bigrams_united %>% 
    count(bigram, sort = TRUE)

bigram_counts

## # A tibble: 89,120 × 2
##    bigram                   n
##    <chr>                <int>
##  1 professor mcgonagall   578
##  2 uncle vernon           386
##  3 harry potter           349
##  4 death eaters           346
##  5 harry looked           316
##  6 harry ron              302
##  7 aunt petunia           206
##  8 invisibility cloak     192
##  9 professor trelawney    177
## 10 dark arts              176
## # … with 89,110 more rows
…
# measure tf-idf
bigram_tf_idf <- 
  bigrams_united %>%
  count(book, bigram) %>%
  bind_tf_idf(bigram, book, n) %>%
  arrange(desc(tf_idf))

bigram_tf_idf

## # A tibble: 107,016 × 6
##    book                 bigram                 n      tf   idf  tf_idf
##    <fct>                <chr>              <int>   <dbl> <dbl>   <dbl>
##  1 Order of the Phoenix professor umbridge   173 0.00533 1.25  0.00667
##  2 Prisoner of Azkaban  professor lupin      107 0.00738 0.847 0.00625
##  3 Deathly Hallows      elder wand            58 0.00243 1.95  0.00473
##  4 Goblet of Fire       ludo bagman           49 0.00201 1.95  0.00391
##  5 Prisoner of Azkaban  aunt marge            42 0.00290 1.25  0.00363
##  6 Deathly Hallows      death eaters         139 0.00582 0.560 0.00326
##  7 Goblet of Fire       madame maxime         89 0.00365 0.847 0.00309
##  8 Chamber of Secrets   gilderoy lockhart     28 0.00232 1.25  0.00291
##  9 Half-Blood Prince    advanced potion       27 0.00129 1.95  0.00252
## 10 Deathly Hallows      deathly hallows       30 0.00126 1.95  0.00245
## # … with 107,006 more rows
…
Now, to get an idea of how our sentiment analysis was affected by negations, let’s find all the bigrams that have the word “not” as the first word in the bigram.

bigrams_separated %>%
  filter(word1 == "not") %>%
  count(word1, 
        word2, 
        sort = TRUE)

## # A tibble: 1,085 × 3
##    word1 word2     n
##    <chr> <chr> <int>
##  1 not   to      383
##  2 not   be      157
##  3 not   a       131
##  4 not   have    116
##  5 not   the     103
##  6 not   know     98
##  7 not   going    92
##  8 not   want     81
##  9 not   said     76
## 10 not   been     75
## # … with 1,075 more rows

The first ten bigrams with “not” as the first word are boring, so let’s remove stop-words from the word2 column.

# use an anchor term (not) 
bigrams_separated <- 
  bigrams_separated %>%
  filter(word1 == "not") %>%
  filter(!word2 %in% stop_words$word)%>%
  count(word1, word2, sort = TRUE)

bigrams_separated

## # A tibble: 824 × 3
##    word1 word2          n
##    <chr> <chr>      <int>
##  1 not   answer        41
##  2 not   speak         41
##  3 not   understand    35
##  4 not   harry         32
##  5 not   supposed      25
##  6 not   dare          24
##  7 not   hear          24
##  8 not   allowed       22
##  9 not   care          22
## 10 not   knowing       17
## # … with 814 more rows

# filter the negation bigrams
not_words <- 
  bigrams_separated %>%
  filter(word1 == "not") %>%
  filter(!word2 %in% stop_words$word)%>%
  inner_join(get_sentiments("bing"), 
             by = c(word2 = "word")) %>%
  ungroup()

not_words

## # A tibble: 199 × 4
##    word1 word2       n sentiment
##    <chr> <chr>   <int> <chr>    
##  1 not   bad        14 negative 
##  2 not   stupid     12 negative 
##  3 not   dead        9 negative 
##  4 not   daring      8 positive 
##  5 not   funny       8 negative 
##  6 not   hurt        7 negative 
##  7 not   blame       6 negative 
##  8 not   bother      6 negative 
##  9 not   pretend     6 negative 
## 10 not   afraid      5 negative 
## # … with 189 more rows
…
Word Correlations

Expanding on sentiments, it is also helpful to understand which pairs of words co-appear the texts. Let’s start with one of the texts..say Goblet of Fire and count the pairs of terms.

# use the goblet of fire text
gf_words <- 
    tibble(chapter = seq_along(goblet_of_fire),
           text = goblet_of_fire) %>%
    unnest_tokens(word, text) %>%
    filter(!word %in% stop_words$word)

gf_words

## # A tibble: 72,663 × 2
##    chapter word     
##      <int> <chr>    
##  1       1 villagers
##  2       1 hangleron
##  3       1 called   
##  4       1 riddle   
##  5       1 house    
##  6       1 riddle   
##  7       1 family   
##  8       1 lived    
##  9       1 stood    
## 10       1 hill     
## # … with 72,653 more rows

# count common word pairs
word_pairs <- 
  gf_words %>%
  pairwise_count(word, 
                 chapter, 
                 sort = TRUE)

word_pairs

## # A tibble: 23,777,402 × 3
##    item1  item2      n
##    <chr>  <chr>  <dbl>
##  1 looked eyes      37
##  2 voice  eyes      37
##  3 head   eyes      37
##  4 harry  eyes      37
##  5 time   eyes      37
##  6 hand   eyes      37
##  7 eyes   looked    37
##  8 voice  looked    37
##  9 head   looked    37
## 10 harry  looked    37
## # … with 23,777,392 more rows

You can see that the output defaults to pairs of terms. Let’s say we just wanted to know about those associated with harry

# find counts between an anchor and words
word_pairs %>% 
  filter(item1 == "harry")

## # A tibble: 9,918 × 3
##    item1 item2       n
##    <chr> <chr>   <dbl>
##  1 harry eyes       37
##  2 harry looked     37
##  3 harry voice      37
##  4 harry head       37
##  5 harry time       37
##  6 harry hand       37
##  7 harry told       36
##  8 harry heard      36
##  9 harry harry's    36
## 10 harry people     35
## # … with 9,908 more rows
…
And we can measure \(\phi\) by \[\dfrac{a\cdot\alpha - m\cdot\mu}{\sqrt{z\cdot\zeta\cdot\rho\cdot g}}\]

or by using

word_cor <- 
  gf_words %>%
  group_by(word) %>%
  filter(n() >= 20) %>%
  pairwise_cor(word, chapter) %>%
  drop_na(correlation)

word_cor

## # A tibble: 514,806 × 3
##    item1   item2  correlation
##    <chr>   <chr>        <dbl>
##  1 house   called     0.345  
##  2 family  called     0.296  
##  3 stood   called     0.195  
##  4 village called    -0.0447 
##  5 windows called    -0.181  
##  6 missing called    -0.195  
##  7 fine    called    -0.0903 
##  8 half    called    -0.163  
##  9 ago     called     0.102  
## 10 strange called     0.00641
## # … with 514,796 more rows

We can also look at at the correlation with a particular term and plot it

# highest correlated words that appears with “potter”
word_cor %>%
  filter(item1 == "potter") %>%
  arrange(desc(correlation))

## # A tibble: 717 × 3
##    item1  item2    correlation
##    <chr>  <chr>          <dbl>
##  1 potter odd            0.585
##  2 potter stood          0.536
##  3 potter telling        0.512
##  4 potter slowly         0.471
##  5 potter class          0.445
##  6 potter minutes        0.444
##  7 potter ears           0.441
##  8 potter straight       0.441
##  9 potter fourth         0.422
## 10 potter witch          0.422
## # … with 707 more rows
…
