…
Getting tidy

library(tidyverse)

Let’s remind ourselves of what the data looks like!

nodes

## # A tibble: 22 x 3
##    name           id allegiance       
##    <chr>       <dbl> <chr>            
##  1 R2-D2           0 Galactic Republic
##  2 CHEWBACCA       1 Galactic Republic
##  3 C-3PO           2 Galactic Republic
##  4 LUKE            3 Jedi Order       
##  5 DARTH VADER     4 Sith Order       
##  6 CAMIE           5 Unknown          
##  7 BIGGS           6 Galactic Republic
##  8 LEIA            7 Galactic Republic
##  9 BERU            8 Galactic Republic
## 10 OWEN            9 Galactic Republic
## # … with 12 more rows

edges

## # A tibble: 60 x 3
##    source    target    weight
##    <chr>     <chr>      <dbl>
##  1 C-3PO     R2-D2         17
##  2 LUKE      R2-D2         13
##  3 OBI-WAN   R2-D2          6
##  4 LEIA      R2-D2          5
##  5 HAN       R2-D2          5
##  6 CHEWBACCA R2-D2          3
##  7 DODONNA   R2-D2          1
##  8 CHEWBACCA OBI-WAN        7
##  9 C-3PO     CHEWBACCA      5
## 10 CHEWBACCA LUKE          16
## # … with 50 more rows
…
