Pipes and the NFL | Statistical Methods I
…
“start with the gapminder data,
and then filter for the United States,
and lastly drop the variables continent and lifeExp.”

mutate() adds new variables

Let’s say we needed to add an index column so we know which order these data came in. Let’s not make a new variable, let’s add a column to our gapminder data frame. How do we do that? With the mutate() function.

Imagine we want to know each country’s annual GDP. We can multiply pop by gdpPercap to create a new column named gdp.

gapminder %>%
  mutate(gdp = pop * gdpPercap)

## # A tibble: 1,704 x 7
##    country     continent  year lifeExp      pop gdpPercap          gdp
##    <fct>       <fct>     <int>   <dbl>    <int>     <dbl>        <dbl>
##  1 Afghanistan Asia       1952    28.8  8425333      779.  6567086330.
##  2 Afghanistan Asia       1957    30.3  9240934      821.  7585448670.
##  3 Afghanistan Asia       1962    32.0 10267083      853.  8758855797.
##  4 Afghanistan Asia       1967    34.0 11537966      836.  9648014150.
##  5 Afghanistan Asia       1972    36.1 13079460      740.  9678553274.
##  6 Afghanistan Asia       1977    38.4 14880372      786. 11697659231.
##  7 Afghanistan Asia       1982    39.9 12881816      978. 12598563401.
##  8 Afghanistan Asia       1987    40.8 13867957      852. 11820990309.
##  9 Afghanistan Asia       1992    41.7 16317921      649. 10595901589.
## 10 Afghanistan Asia       1997    41.8 22227415      635. 14121995875.
## # … with 1,694 more rows
…
On Your Own 1

Try to figure this out by yourself using pipes and only the filter, mutate, and select commands. Compare your syntax with the syntax below. Remember! There are multiple ways to go about finding the outcome.

Calculate the population in thousands for all European countries in the year 2007 and add it as a new column.

Possible solution

gapminder %>%
  filter(continent == "Europe",
         year == 2007) %>%
  mutate(pop_thousands = pop/1000) %>%
  select(country, year, pop_thousands) #this cleans up the dataframe but isn't necessary

## # A tibble: 30 x 3
##    country                 year pop_thousands
##    <fct>                  <int>         <dbl>
##  1 Albania                 2007         3601.
##  2 Austria                 2007         8200.
##  3 Belgium                 2007        10392.
##  4 Bosnia and Herzegovina  2007         4552.
##  5 Bulgaria                2007         7323.
##  6 Croatia                 2007         4493.
##  7 Czech Republic          2007        10229.
##  8 Denmark                 2007         5468.
##  9 Finland                 2007         5238.
## 10 France                  2007        61084.
## # … with 20 more rows

If you got it, that’s great! However, it’s absolutely fine if you did not. The best way to learn is to practice (and possibly yell at your computer a few times if that helps).

group_by() operates on groups

What if we wanted to know the total population on each continent in 2002? Answering this question requires a grouping variable. By using group_by() we can set our grouping variable to continent and create a new column called cont_pop that will add up all country populations by their associated continents.

gapminder %>%
  filter(year == 2002) %>%
  group_by(continent) %>% 
  mutate(cont_pop = sum(pop))

## # A tibble: 142 x 7
## # Groups:   continent [5]
##    country     continent  year lifeExp       pop gdpPercap   cont_pop
##    <fct>       <fct>     <int>   <dbl>     <int>     <dbl>      <dbl>
##  1 Afghanistan Asia       2002    42.1  25268405      727. 3601802203
##  2 Albania     Europe     2002    75.7   3508512     4604.  578223869
##  3 Algeria     Africa     2002    71.0  31287142     5288.  833723916
##  4 Angola      Africa     2002    41.0  10866106     2773.  833723916
##  5 Argentina   Americas   2002    74.3  38331121     8798.  849772762
##  6 Australia   Oceania    2002    80.4  19546792    30688.   23454829
##  7 Austria     Europe     2002    79.0   8148312    32418.  578223869
##  8 Bahrain     Asia       2002    74.8    656397    23404. 3601802203
##  9 Bangladesh  Asia       2002    62.0 135656790     1136. 3601802203
## 10 Belgium     Europe     2002    78.3  10311970    30486.  578223869
## # … with 132 more rows
…
summarize() will actually only keep the columns that are grouped_by or summarized. So if we wanted to keep other columns, we’d have to do have a few more steps. ungroup() removes the grouping and it’s good to get in the habit of using it after a group_by() because R remembers! We can use more than one grouping variable. Let’s get total populations by continent and year.

gapminder %>%
  group_by(continent, year) %>%
  summarize(cont_pop = sum(as.numeric(pop))) %>%
  ungroup()

## `summarise()` regrouping output by 'continent' (override with `.groups` argument)

## # A tibble: 60 x 3
##    continent  year  cont_pop
##    <fct>     <int>     <dbl>
##  1 Africa     1952 237640501
##  2 Africa     1957 264837738
##  3 Africa     1962 296516865
##  4 Africa     1967 335289489
##  5 Africa     1972 379879541
##  6 Africa     1977 433061021
##  7 Africa     1982 499348587
##  8 Africa     1987 574834110
##  9 Africa     1992 659081517
## 10 Africa     1997 743832984
## # … with 50 more rows

arrange() orders columns

This is ordered alphabetically, which is helpful in certain circumstances. But let’s say we wanted to order it in ascending order for year. The dplyr function to do that is arrange().

gapminder %>%
  group_by(continent, year) %>%
  summarize(cont_pop = sum(as.numeric(pop))) %>%
  arrange(year) %>%
  ungroup()

## `summarise()` regrouping output by 'continent' (override with `.groups` argument)

## # A tibble: 60 x 3
##    continent  year   cont_pop
##    <fct>     <int>      <dbl>
##  1 Africa     1952  237640501
##  2 Americas   1952  345152446
##  3 Asia       1952 1395357351
##  4 Europe     1952  418120846
##  5 Oceania    1952   10686006
##  6 Africa     1957  264837738
##  7 Americas   1957  386953916
##  8 Asia       1957 1562780599
##  9 Europe     1957  437890351
## 10 Oceania    1957   11941976
## # … with 50 more rows
…
