Topic Modeling
…
---

count: false

.panel1-sw1a-auto[

```r
*employee_responses
```
]
 
.panel2-sw1a-auto[

```
## # A tibble: 88 × 6
##       id person_name     nine_box_category                                         feedb…¹ adjus…² revie…³
##    <dbl> <chr>           <chr>                                                     <chr>   <lgl>   <lgl>  
##  1   612 Yahir Harvey    Category 6: 'High Performer' (High performance, Moderate… "Requi… TRUE    TRUE   
##  2   552 Briley Mcknight Category 7: 'Potential Gem' (Low performance, High poten… "Basic… FALSE   FALSE  
##  3 10215 Emerson Rose    Category 2: 'Average performer' (Moderate performance, L… "Emers… FALSE   FALSE  
##  4   315 Jay Reid        Category 4: 'Inconsistent Player' (Low performance, Mode… "I am … FALSE   FALSE  
##  5   447 Chelsea Ross    Category 6: 'High Performer' (High performance, Moderate… "Chels… FALSE   FALSE  
##  6   186 Eloise Foster   Category 3: 'Solid Performer' (High performance, Low pot… "Elois… FALSE   FALSE  
##  7   238 Eloise Foster   Category 3: 'Solid Performer' (High performance, Low pot… "Elois… FALSE   FALSE  
##  8   621 Dennis Buchanan Category 8: 'High Potential' (Moderate performance, High… "Denni… FALSE   FALSE  
##  9 10020 Kieran Clarke   Category 5: 'Core Player' (Moderate performance, Moderat… "Kiera… FALSE   FALSE  
## 10   560 Logan Ellis     Category 7: 'Potential Gem' (Low performance, High poten… "While… FALSE   FALSE  
## # … with 78 more rows, and abbreviated variable names ¹​feedback, ²​adjusted, ³​reviewed
```
…
---
count: false

.panel1-sw1a-auto[

```r
employee_responses %>%
* select(feedback)   # Select the column with open ended responses
```
]
 
.panel2-sw1a-auto[

```
## # A tibble: 88 × 1
##    feedback                                                                                               
##    <chr>                                                                                                  
##  1 "Requires additional scope[e. Willingness to self start. Outperforms task. motivated to exceed."       
##  2 "Basically Briley Mcknight  have high potential in his work experience. But in recent days he is doing…
##  3 "Emerson Rose is a fairly average worker.  she puts out satisfactory work and she shows little potenti…
##  4 "I am writing a review for Mr. Jay Reid. While he is a great person, unfortunately that doesn't show u…
##  5 "Chelsea Ross performed at a high level this past year.  She is one of the most reliable and solid per…
##  6 "Eloise Foster is a follower rather than a leader. While she does complete her tasks in a timely manne…
##  7 "Eloise is a very capable worker and always produces excellent work. She always finishes her work earl…
##  8 "Dennis is a consistently reliable as an employee.  His work product is always above par and his dedic…
##  9 "Kieran is a linchpin of the team, and a dependable worker. Can be trusted with tasks of moderate comp…
## 10 "While I have found some issues with Logan's performance in the past, specifically a lack of attention…
## # … with 78 more rows
```
…
.panel1-sw1a-auto[

```r
employee_responses %>%
  select(feedback) %>%  # Select the column with open ended responses
* mutate(feedback = textclean::replace_non_ascii(feedback))   # Convert to a standard format
```
]
 
.panel2-sw1a-auto[

```
## # A tibble: 88 × 1
##    feedback                                                                                               
##    <chr>                                                                                                  
##  1 Requires additional scope[e. Willingness to self start. Outperforms task. motivated to exceed.         
##  2 Basically Briley Mcknight have high potential in his work experience. But in recent days he is doing l…
##  3 Emerson Rose is a fairly average worker. she puts out satisfactory work and she shows little potential…
##  4 I am writing a review for Mr. Jay Reid. While he is a great person, unfortunately that doesn't show up…
##  5 Chelsea Ross performed at a high level this past year. She is one of the most reliable and solid perfo…
##  6 Eloise Foster is a follower rather than a leader. While she does complete her tasks in a timely manner…
##  7 Eloise is a very capable worker and always produces excellent work. She always finishes her work early…
##  8 Dennis is a consistently reliable as an employee. His work product is always above par and his dedicat…
##  9 Kieran is a linchpin of the team, and a dependable worker. Can be trusted with tasks of moderate compl…
## 10 While I have found some issues with Logan's performance in the past, specifically a lack of attention …
## # … with 78 more rows
```
…
.panel1-sw1a-auto[

```r
employee_responses %>%
  select(feedback) %>%  # Select the column with open ended responses
  mutate(feedback = textclean::replace_non_ascii(feedback)) %>%  # Convert to a standard format
* mutate(feedback = str_to_lower(feedback))   # Convert all words to lower case
```
]
 
.panel2-sw1a-auto[

```
## # A tibble: 88 × 1
##    feedback                                                                                               
##    <chr>                                                                                                  
##  1 requires additional scope[e. willingness to self start. outperforms task. motivated to exceed.         
##  2 basically briley mcknight have high potential in his work experience. but in recent days he is doing l…
##  3 emerson rose is a fairly average worker. she puts out satisfactory work and she shows little potential…
##  4 i am writing a review for mr. jay reid. while he is a great person, unfortunately that doesn't show up…
##  5 chelsea ross performed at a high level this past year. she is one of the most reliable and solid perfo…
##  6 eloise foster is a follower rather than a leader. while she does complete her tasks in a timely manner…
##  7 eloise is a very capable worker and always produces excellent work. she always finishes her work early…
##  8 dennis is a consistently reliable as an employee. his work product is always above par and his dedicat…
##  9 kieran is a linchpin of the team, and a dependable worker. can be trusted with tasks of moderate compl…
## 10 while i have found some issues with logan's performance in the past, specifically a lack of attention …
## # … with 78 more rows
```
…
.panel1-sw1a-auto[

```r
employee_responses %>%
  select(feedback) %>%  # Select the column with open ended responses
  mutate(feedback = textclean::replace_non_ascii(feedback)) %>%  # Convert to a standard format
  mutate(feedback = str_to_lower(feedback)) %>%  # Convert all words to lower case
* mutate(feedback = str_remove_all(feedback, "'s"))   # Remove all cases of `s
```
]
 
.panel2-sw1a-auto[

```
## # A tibble: 88 × 1
##    feedback                                                                                               
##    <chr>                                                                                                  
##  1 requires additional scope[e. willingness to self start. outperforms task. motivated to exceed.         
##  2 basically briley mcknight have high potential in his work experience. but in recent days he is doing l…
##  3 emerson rose is a fairly average worker. she puts out satisfactory work and she shows little potential…
##  4 i am writing a review for mr. jay reid. while he is a great person, unfortunately that doesn't show up…
##  5 chelsea ross performed at a high level this past year. she is one of the most reliable and solid perfo…
##  6 eloise foster is a follower rather than a leader. while she does complete her tasks in a timely manner…
##  7 eloise is a very capable worker and always produces excellent work. she always finishes her work early…
##  8 dennis is a consistently reliable as an employee. his work product is always above par and his dedicat…
##  9 kieran is a linchpin of the team, and a dependable worker. can be trusted with tasks of moderate compl…
## 10 while i have found some issues with logan performance in the past, specifically a lack of attention to…
## # … with 78 more rows
```
…
```r
employee_responses %>%
  select(feedback) %>%  # Select the column with open ended responses
  mutate(feedback = textclean::replace_non_ascii(feedback)) %>%  # Convert to a standard format
  mutate(feedback = str_to_lower(feedback)) %>%  # Convert all words to lower case
  mutate(feedback = str_remove_all(feedback, "'s")) %>%  # Remove all cases of `s
* mutate(feedback = str_remove_all(feedback, "[[:digit:]]"))   # Remove all numbers
```
]
 
.panel2-sw1a-auto[

```
## # A tibble: 88 × 1
##    feedback                                                                                               
##    <chr>                                                                                                  
##  1 requires additional scope[e. willingness to self start. outperforms task. motivated to exceed.         
##  2 basically briley mcknight have high potential in his work experience. but in recent days he is doing l…
##  3 emerson rose is a fairly average worker. she puts out satisfactory work and she shows little potential…
##  4 i am writing a review for mr. jay reid. while he is a great person, unfortunately that doesn't show up…
##  5 chelsea ross performed at a high level this past year. she is one of the most reliable and solid perfo…
##  6 eloise foster is a follower rather than a leader. while she does complete her tasks in a timely manner…
##  7 eloise is a very capable worker and always produces excellent work. she always finishes her work early…
##  8 dennis is a consistently reliable as an employee. his work product is always above par and his dedicat…
##  9 kieran is a linchpin of the team, and a dependable worker. can be trusted with tasks of moderate compl…
## 10 while i have found some issues with logan performance in the past, specifically a lack of attention to…
## # … with 78 more rows
```
…
```r
employee_responses %>%
  select(feedback) %>%  # Select the column with open ended responses
  mutate(feedback = textclean::replace_non_ascii(feedback)) %>%  # Convert to a standard format
  mutate(feedback = str_to_lower(feedback)) %>%  # Convert all words to lower case
  mutate(feedback = str_remove_all(feedback, "'s")) %>%  # Remove all cases of `s
  mutate(feedback = str_remove_all(feedback, "[[:digit:]]")) %>%  # Remove all numbers
* mutate(feedback = str_remove_all(feedback, "[[:punct:]]"))   # Remove all punctuation
```
]
 
.panel2-sw1a-auto[

```
## # A tibble: 88 × 1
##    feedback                                                                                               
##    <chr>                                                                                                  
##  1 requires additional scopee willingness to self start outperforms task motivated to exceed              
##  2 basically briley mcknight have high potential in his work experience but in recent days he is doing lo…
##  3 emerson rose is a fairly average worker she puts out satisfactory work and she shows little potential …
##  4 i am writing a review for mr jay reid while he is a great person unfortunately that doesnt show up in …
##  5 chelsea ross performed at a high level this past year she is one of the most reliable and solid perfor…
##  6 eloise foster is a follower rather than a leader while she does complete her tasks in a timely manner …
##  7 eloise is a very capable worker and always produces excellent work she always finishes her work early …
##  8 dennis is a consistently reliable as an employee his work product is always above par and his dedicati…
##  9 kieran is a linchpin of the team and a dependable worker can be trusted with tasks of moderate complex…
## 10 while i have found some issues with logan performance in the past specifically a lack of attention to …
## # … with 78 more rows
```
…
.panel2-sw1a-auto[

```
## # A tibble: 88 × 1
##    feedback                                                                                               
##    <chr>                                                                                                  
##  1 "requires additional scopee willingness to self start outperforms task motivated to exceed"            
##  2 "basically  mcknight have high potential  his work experience but  recent days he is doing  performanc…
##  3 "  is a fairly average worker  puts out satisfactory work and  shows  potential i would  to  a  bit mo…
##  4 "i am writing a review for    while he is a  person unfortunately that doesnt show up  his performance…
##  5 "  performed at a high level this past year  is one of  most reliable and solid performers on  team  h…
##  6 "  is a follower rather  a leader while  does complete  tasks  a timely manner  does  without being in…
##  7 " is a very capable worker and always produces excellent work  always finishes  work  and diligently p…
##  8 " is a consistently reliable as  employee his work product is always above  and his dedication and com…
##  9 " is a linchpin of  team and a dependable worker   trusted with tasks of moderate complexity and excel…
## 10 "while i have found some issues with  performance   past specifically a lack of attention to detail i …
## # … with 78 more rows
```
…
.panel2-sw1a-auto[

```
## # A tibble: 88 × 1
##    feedback                                                                                               
##    <chr>                                                                                                  
##  1 "requires additional scopee willingness to self start outperforms task motivated to exceed"            
##  2 "basically   have high potential  his work experience but  recent days he is doing  performance  his c…
##  3 "  is a fairly average worker  puts out satisfactory work and  shows  potential i would  to  a  bit mo…
##  4 "i am writing a review for    while he is a  person unfortunately that doesnt show up  his performance…
##  5 "  performed at a high level this past year  is one of  most reliable and solid performers on  team  h…
##  6 "  is a follower rather  a leader while  does complete  tasks  a timely manner  does  without being in…
##  7 " is a very capable worker and always produces excellent work  always finishes  work  and diligently p…
##  8 " is a consistently reliable as  employee his work product is always above  and his dedication and com…
##  9 " is a linchpin of  team and a dependable worker   trusted with tasks of moderate complexity and excel…
## 10 "while i have found some issues with  performance   past specifically a lack of attention to detail i …
## # … with 78 more rows
```
…
.panel2-sw1a-auto[

```
## # A tibble: 88 × 1
##    feedback                                                                                               
##    <chr>                                                                                                  
##  1 require additional scopee willingness to self start outperform task motivate to exceed                 
##  2 basically have high potential his work experience but recent day he be do performance his core i think…
##  3 be a fairly average worker put out satisfactory work and show potential i would to a bite much from be…
##  4 i be write a review for while he be a person unfortunately that doesnt show up his performance at work…
##  5 perform at a high level this past year be one of much reliable and solid performer on team have a firm…
##  6 be a follower rather a leader while do complete task a timely manner do without be inventive team sett…
##  7 be a very capable worker and always produce excellent work always finish work and diligently pursue ne…
##  8 be a consistently reliable as employee his work product be always above and his dedication and commitm…
##  9 be a linchpin of team and a dependable worker trust with task of moderate complexity and excellent int…
## 10 while i have find some issue with performance past specifically a lack of attention to detail i find h…
## # … with 78 more rows
```
…
.panel2-sw1a-auto[

```
## # A tibble: 88 × 1
##    feedback                                                                                               
##    <chr>                                                                                                  
##  1 require additional scopee willingness to self start outperform task motivate to exceed                 
##  2 basically have high potential his work experience but recent day he be do performance his core i think…
##  3 be a fairly average worker put out satisfactory work and show potential i would to a bite much from be…
##  4 i be write a review for while he be a person unfortunately that doesnt show up his performance at work…
##  5 perform at a high level this past year be one of much reliable and solid performer on team have a firm…
##  6 be a follower rather a leader while do complete task a timely manner do without be inventive team sett…
##  7 be a very capable worker and always produce excellent work always finish work and diligently pursue ne…
##  8 be a consistently reliable as employee his work product be always above and his dedication and commitm…
##  9 be a linchpin of team and a dependable worker trust with task of moderate complexity and excellent int…
## 10 while i have find some issue with performance past specifically a lack of attention to detail i find h…
## # … with 78 more rows
```
…
.panel2-sw1a-auto[

```
## # A tibble: 88 × 1
##    feedback                                                                                               
##    <chr>                                                                                                  
##  1 require additional scopee willingness to self start outperform task motivate to exceed                 
##  2 basically have high potential his work experience but recent day he be do performance his core i think…
##  3 be a fairly average worker put out satisfactory work and show potential i would to a bite much from be…
##  4 i be write a review for while he be a person unfortunately that doesnt show up his performance at work…
##  5 perform at a high level this past year be one of much reliable and solid performer on team have a firm…
##  6 be a follower rather a leader while do complete task a timely manner do without be inventive team sett…
##  7 be a very capable worker and always produce excellent work always finish work and diligently pursue ne…
##  8 be a consistently reliable as employee his work product be always above and his dedication and commitm…
##  9 be a linchpin of team and a dependable worker trust with task of moderate complexity and excellent int…
## 10 while i have find some issue with performance past specifically a lack of attention to detail i find h…
## # … with 78 more rows
```
…
