Hooked on Feelings | Data Visualization
…
## 
## Attaching package: 'flextable'

## The following object is masked from 'package:purrr':
## 
##     compose

## The following objects are masked from 'package:kableExtra':
## 
##     as_image, footnote

gutenberg_metadata

## # A tibble: 51,997 x 8
##    gutenberg_id title  author  gutenberg_autho… language gutenberg_books… rights
##           <int> <chr>  <chr>              <int> <chr>    <chr>            <chr> 
##  1            0  <NA>  <NA>                  NA en       <NA>             Publi…
##  2            1 "The … Jeffer…             1638 en       United States L… Publi…
##  3            2 "The … United…                1 en       American Revolu… Publi…
##  4            3 "John… Kenned…             1666 en       <NA>             Publi…
##  5            4 "Linc… Lincol…                3 en       US Civil War     Publi…
##  6            5 "The … United…                1 en       American Revolu… Publi…
##  7            6 "Give… Henry,…                4 en       American Revolu… Publi…
##  8            7 "The … <NA>                  NA en       <NA>             Publi…
##  9            8 "Abra… Lincol…                3 en       US Civil War     Publi…
## 10            9 "Abra… Lincol…                3 en       US Civil War     Publi…
## # … with 51,987 more rows, and 1 more variable: has_text <lgl>
…
war_chapters_word <- war_chapters %>%
                      unnest_tokens(word, text)

and assess document-word counts

war_word_counts <- war_chapters_word %>%
                    anti_join(stop_words) %>%
                    count(document, word, sort = TRUE) %>%
                    ungroup()

## Joining, by = "word"

war_word_counts

## # A tibble: 15,367 x 3
##    document                 word         n
##    <chr>                    <chr>    <int>
##  1 The War of the Worlds_16 brother     50
##  2 The War of the Worlds_25 ulla        28
##  3 The War of the Worlds_14 brother     26
##  4 The War of the Worlds_16 road        25
##  5 The War of the Worlds_14 people      24
##  6 The War of the Worlds_16 people      24
##  7 The War of the Worlds_12 people      20
##  8 The War of the Worlds_16 lane        20
##  9 The War of the Worlds_12 water       19
## 10 The War of the Worlds_19 martians    19
## # … with 15,357 more rows
…
