…
with respondents self-report under the five factors Extroversion (EXT), Agreeableness (AGR), Conscientiousness (CSN), Emotional Stability (EST), and Intellect/Imagination (OPN).

big_five_codebook

## # A tibble: 50 x 2
##    ID    Item                                           
##    <chr> <chr>                                          
##  1 EXT1  I am the life of the party.                    
##  2 EXT2  I don't talk a lot.                            
##  3 EXT3  I feel comfortable around people.              
##  4 EXT4  I keep in the background.                      
##  5 EXT5  I start conversations.                         
##  6 EXT6  I have little to say.                          
##  7 EXT7  I talk to a lot of different people at parties.
##  8 EXT8  I don't like to draw attention to myself.      
##  9 EXT9  I don't mind being the center of attention.    
## 10 EXT10 I am quiet around strangers.                   
## # … with 40 more rows
…
For this walkthrough, let’s just concentrate on the Extroversion items which are given by EXT. That means we should probably pair down both the data set and codebook. For data sets with multiple columns, we can use the select() syntax. Moreover since we are looking at all of the columns that have EXT, we can pull only those using the starts_with() command. For more examples of options that can be used with select(), take a look here.

big_five_data_EXT <- big_five_data %>%
                     select(starts_with("EXT"))

and then we’ll do something similar to the codebook. While we can’t simply select columns because all of the variables are in a single column. Much like in Excel, we can filter rows. To do this in R, we use the filter() command.

big_five_codebook_EXT <- big_five_codebook %>%
                         filter(str_detect(ID, "EXT"))

big_five_data_EXT

## # A tibble: 100 x 10
##     EXT1  EXT2  EXT3  EXT4  EXT5  EXT6  EXT7  EXT8  EXT9 EXT10
##    <dbl> <dbl> <dbl> <dbl> <dbl> <dbl> <dbl> <dbl> <dbl> <dbl>
##  1     3     2     3     4     4     2     3     3     4     2
##  2     1     5     1     5     1     4     1     5     4     5
##  3     2     5     4     3     1     5     1     3     4     5
##  4     2     3     3     3     3     2     2     4     2     3
##  5     3     4     3     3     3     3     3     2     3     4
##  6     3     1     5     1     4     1     5     4     4     2
##  7     3     3     4     2     5     2     5     2     4     3
##  8     3     4     1     3     0     4     1     4     2     5
##  9     2     4     2     4     4     1     3     1     2     5
## 10     3     4     4     2     3     2     3     5     1     4
## # … with 90 more rows
…
Well it certainly looks like EXT2, EXT4, EXT6, EXT8 and EXT10 are all negative in the context of of assessing extroversion. Furthermore while EXT9 includes the term don’t, it doesn’t orient the statement in a negative way so it stays the way it is.

Remember that command we needed from the surveytools2 package? Well it was to reverse code in a tidy way

big_five_data_EXT_rev <- big_five_data_EXT %>%
                         mutate(EXT2 = reverse_code(EXT2),
                                EXT4 = reverse_code(EXT4),
                                EXT6 = reverse_code(EXT6),
                                EXT8 = reverse_code(EXT8),
                                EXT10 = reverse_code(EXT10))

big_five_data_EXT_rev

## # A tibble: 100 x 10
##     EXT1  EXT2  EXT3  EXT4  EXT5  EXT6  EXT7  EXT8  EXT9 EXT10
##    <dbl> <dbl> <dbl> <dbl> <dbl> <dbl> <dbl> <dbl> <dbl> <dbl>
##  1     3     4     3     1     4     3     3     2     4     3
##  2     1     1     1     0     1     1     1     0     4     0
##  3     2     1     4     2     1     0     1     2     4     0
##  4     2     3     3     2     3     3     2     1     2     2
##  5     3     2     3     2     3     2     3     3     3     1
##  6     3     5     5     4     4     4     5     1     4     3
##  7     3     3     4     3     5     3     5     3     4     2
##  8     3     2     1     2     0     1     1     1     2     0
##  9     2     2     2     1     4     4     3     4     2     0
## 10     3     2     4     3     3     3     3     0     1     1
## # … with 90 more rows
…
