…
or via the reactable() package

reactable(nerdy_data,
          searchable = TRUE, 
          defaultPageSize = 5,
          showPageSizeOptions = TRUE,
          highlight = TRUE)

as well as the codebook and measures

nerdy_pm_codebook

## # A tibble: 25 x 2
##    Q1    `I am interested in science.`                                          
##    <chr> <chr>                                                                  
##  1 Q2    I was in advanced classes.                                             
##  2 Q3    I like to play RPGs. (Ex. D&D)                                         
##  3 Q4    My appearance is not as important as my intelligence.                  
##  4 Q5    I collect books.                                                       
##  5 Q6    I prefer academic success to social success.                           
##  6 Q7    I watch science related shows.                                         
##  7 Q8    I spend recreational time researching topics others might find dry or …
##  8 Q9    I like science fiction.                                                
##  9 Q10   I would rather read a book than go to a party.                         
## 10 Q11   I am more comfortable with my hobbies than I am with other people.     
## # … with 15 more rows
…
