…
</div>

as well as the codebook and measures

<div class="rounded">

``` r
nerdy_pm_codebook
```

    ## # A tibble: 26 × 2
    ##    Index Item                                                                   
    ##    <chr> <chr>                                                                  
    ##  1 Q1    I am interested in science.                                            
    ##  2 Q2    I was in advanced classes.                                             
    ##  3 Q3    I like to play RPGs. (Ex. D&D)                                         
    ##  4 Q4    My appearance is not as important as my intelligence.                  
    ##  5 Q5    I collect books.                                                       
    ##  6 Q6    I prefer academic success to social success.                           
    ##  7 Q7    I watch science related shows.                                         
    ##  8 Q8    I spend recreational time researching topics others might find dry or …
    ##  9 Q9    I like science fiction.                                                
    ## 10 Q10   I would rather read a book than go to a party.                         
    ## # … with 16 more rows
…
