Hooked on Feelings | Data Visualization
…
In a nutshell, computers and people don’t view or “understand” text in the same way - enter Natural Language Processing (NLP). Part of artificial intelligence, NLP acts as a middleman that deals with the reading, deciphering and understanding of natural language used by computers and humans.

Tokenize

Tokenization is process of taking a bunch of characters (i.e. strings) and chopping the up into little pieces called tokens. Notice that actual “words” are not necessary here. This is important because it will allow us to use parts of words as you’ll see soon!

tokens <- data_frame(text = fileText) %>% 
              unnest_tokens(word, text)

## Warning: `data_frame()` was deprecated in tibble 1.1.0.
## Please use `tibble()` instead.

tokens

## # A tibble: 4,822 x 1
##    word         
##    <chr>        
##  1 mr           
##  2 speaker      
##  3 mr           
##  4 president    
##  5 and          
##  6 distinguished
##  7 members      
##  8 of           
##  9 the          
## 10 house        
## # … with 4,812 more rows
…
In text analysis, we tend to remove stop words which are terms that are not useful for an analysis like “and”, “of”, “the”, etc. Here we use anti_join() to get rid of those terms from our data set.

data(stop_words)

tidy_tokens <- tokens %>%
               anti_join(stop_words)

## Joining, by = "word"

Let’s see a count of the remaining terms

tidy_tokens %>%
  count(word, sort = TRUE) 

## # A tibble: 1,097 x 2
##    word          n
##    <chr>     <int>
##  1 america      24
##  2 tonight      21
##  3 budget       17
##  4 future       15
##  5 time         15
##  6 people       13
##  7 nation       11
##  8 congress     10
##  9 hope         10
## 10 americans     9
## # … with 1,087 more rows
…
