…
observed_stat <- chisq.test(gss_newlevels$party, gss_newlevels$space)$stat

We might be tempted to look at this and say, there’s a high \(p\)-value. No significant relationship exists. So we’re done! This is what we expected looking at the bar plots earlier! Well not so fast? Let’s look at it programatically.

Programatically

Another way to test if there is a significant relationship in our data is to take a programmatic approach. Basically the idea here is if we live in world where variables are totally unrelated, they might as well have been randomly put together. Basically in the real world, yes of course things (variables) are related! Someone’s party affiliation is predicated on their history and maturation and that then most likely informs their views on funding, especially for an area of the sciences like space exploration. So does the data we have look more like random or normal world?

Let’s explore this by taking one of the columns of our data frame and scrambling it.

gss_newlevels %>%
  mutate(random_1 = sample(space),
         random_2 = sample(space))

## # A tibble: 149 x 4
##    party space       random_1    random_2   
##    <fct> <fct>       <fct>       <fct>      
##  1 Ind   TOO LITTLE  TOO LITTLE  ABOUT RIGHT
##  2 Ind   ABOUT RIGHT TOO LITTLE  TOO MUCH   
##  3 Dem   ABOUT RIGHT TOO LITTLE  ABOUT RIGHT
##  4 Ind   TOO LITTLE  ABOUT RIGHT TOO LITTLE 
##  5 Ind   TOO MUCH    TOO LITTLE  ABOUT RIGHT
##  6 Ind   TOO LITTLE  ABOUT RIGHT TOO LITTLE 
##  7 Ind   ABOUT RIGHT ABOUT RIGHT ABOUT RIGHT
##  8 Dem   ABOUT RIGHT TOO MUCH    ABOUT RIGHT
##  9 Dem   TOO LITTLE  ABOUT RIGHT ABOUT RIGHT
## 10 Ind   TOO LITTLE  ABOUT RIGHT TOO MUCH   
## # … with 139 more rows
…
