Exploring NFL Ticket Prices in R
…
# Take a look at the entire frame...

```r
prices
```

```
## # A tibble: 108 x 3
##    Event                                                    Division `Avg TP, $`
##    <chr>                                                    <chr>          <dbl>
##  1 Baltimore Ravens at Pittsburgh Steelers Tickets on 02-N… AFC Nor…         202
##  2 Pittsburgh Steelers at Baltimore Ravens Tickets on 11-S… AFC Nor…         199
##  3 Cleveland Browns at Pittsburgh Steelers Tickets on 07-S… AFC Nor…         196
##  4 Cincinnati Bengals at Pittsburgh Steelers Tickets on 28… AFC Nor…         164
##  5 Pittsburgh Steelers at Cleveland Browns Tickets on 12-O… AFC Nor…         148
##  6 Cleveland Browns at Baltimore Ravens Tickets on 28-Dec-… AFC Nor…         137
##  7 Cincinnati Bengals at Baltimore Ravens Tickets on 07-Se… AFC Nor…         135
##  8 Cleveland Browns at Cincinnati Bengals Tickets on 06-No… AFC Nor…         102
##  9 Pittsburgh Steelers at Cincinnati Bengals Tickets on 07… AFC Nor…          89
## 10 Baltimore Ravens at Cleveland Browns Tickets on 21-Sep-… AFC Nor…          83
## # … with 98 more rows
```
…
