A Very Incomplete Survey of Descriptive Statistics Commands in R
…
# Descriptives

We're going to use the Star Wars data set that's included in `dplyr`

```r
data(starwars)
```

```r
starwars
```

```
## # A tibble: 87 × 14
##    name        height  mass hair_…¹ skin_…² eye_c…³ birth…⁴ sex   gender homew…⁵
##    <chr>        <int> <dbl> <chr>   <chr>   <chr>     <dbl> <chr> <chr>  <chr>  
##  1 Luke Skywa…    172    77 blond   fair    blue       19   male  mascu… Tatooi…
##  2 C-3PO          167    75 <NA>    gold    yellow    112   none  mascu… Tatooi…
##  3 R2-D2           96    32 <NA>    white,… red        33   none  mascu… Naboo  
##  4 Darth Vader    202   136 none    white   yellow     41.9 male  mascu… Tatooi…
##  5 Leia Organa    150    49 brown   light   brown      19   fema… femin… Aldera…
##  6 Owen Lars      178   120 brown,… light   blue       52   male  mascu… Tatooi…
##  7 Beru White…    165    75 brown   light   blue       47   fema… femin… Tatooi…
##  8 R5-D4           97    32 <NA>    white,… red        NA   none  mascu… Tatooi…
##  9 Biggs Dark…    183    84 black   light   brown      24   male  mascu… Tatooi…
## 10 Obi-Wan Ke…    182    77 auburn… fair    blue-g…    57   male  mascu… Stewjon
## # … with 77 more rows, 4 more variables: species <chr>, films <list>,
## #   vehicles <list>, starships <list>, and abbreviated variable names
## #   ¹​hair_color, ²​skin_color, ³​eye_color, ⁴​birth_year, ⁵​homeworld
```
…
## Frequencies

count: false

.panel1-sw1-auto[

```r
*starwars
```
]
 
.panel2-sw1-auto[

```
## # A tibble: 87 × 14
##    name        height  mass hair_…¹ skin_…² eye_c…³ birth…⁴ sex   gender homew…⁵
##    <chr>        <int> <dbl> <chr>   <chr>   <chr>     <dbl> <chr> <chr>  <chr>  
##  1 Luke Skywa…    172    77 blond   fair    blue       19   male  mascu… Tatooi…
##  2 C-3PO          167    75 <NA>    gold    yellow    112   none  mascu… Tatooi…
##  3 R2-D2           96    32 <NA>    white,… red        33   none  mascu… Naboo  
##  4 Darth Vader    202   136 none    white   yellow     41.9 male  mascu… Tatooi…
##  5 Leia Organa    150    49 brown   light   brown      19   fema… femin… Aldera…
##  6 Owen Lars      178   120 brown,… light   blue       52   male  mascu… Tatooi…
##  7 Beru White…    165    75 brown   light   blue       47   fema… femin… Tatooi…
##  8 R5-D4           97    32 <NA>    white,… red        NA   none  mascu… Tatooi…
##  9 Biggs Dark…    183    84 black   light   brown      24   male  mascu… Tatooi…
## 10 Obi-Wan Ke…    182    77 auburn… fair    blue-g…    57   male  mascu… Stewjon
## # … with 77 more rows, 4 more variables: species <chr>, films <list>,
## #   vehicles <list>, starships <list>, and abbreviated variable names
## #   ¹​hair_color, ²​skin_color, ³​eye_color, ⁴​birth_year, ⁵​homeworld
```
…
count: false

.panel1-sw2-auto[

```r
*starwars
```
]
 
.panel2-sw2-auto[

```
## # A tibble: 87 × 14
##    name        height  mass hair_…¹ skin_…² eye_c…³ birth…⁴ sex   gender homew…⁵
##    <chr>        <int> <dbl> <chr>   <chr>   <chr>     <dbl> <chr> <chr>  <chr>  
##  1 Luke Skywa…    172    77 blond   fair    blue       19   male  mascu… Tatooi…
##  2 C-3PO          167    75 <NA>    gold    yellow    112   none  mascu… Tatooi…
##  3 R2-D2           96    32 <NA>    white,… red        33   none  mascu… Naboo  
##  4 Darth Vader    202   136 none    white   yellow     41.9 male  mascu… Tatooi…
##  5 Leia Organa    150    49 brown   light   brown      19   fema… femin… Aldera…
##  6 Owen Lars      178   120 brown,… light   blue       52   male  mascu… Tatooi…
##  7 Beru White…    165    75 brown   light   blue       47   fema… femin… Tatooi…
##  8 R5-D4           97    32 <NA>    white,… red        NA   none  mascu… Tatooi…
##  9 Biggs Dark…    183    84 black   light   brown      24   male  mascu… Tatooi…
## 10 Obi-Wan Ke…    182    77 auburn… fair    blue-g…    57   male  mascu… Stewjon
## # … with 77 more rows, 4 more variables: species <chr>, films <list>,
## #   vehicles <list>, starships <list>, and abbreviated variable names
## #   ¹​hair_color, ²​skin_color, ³​eye_color, ⁴​birth_year, ⁵​homeworld
```
…
---
count: false

.panel1-sw2-auto[

```r
starwars %>%
* group_by(species)
```
]
 
.panel2-sw2-auto[

```
## # A tibble: 87 × 14
## # Groups:   species [38]
##    name        height  mass hair_…¹ skin_…² eye_c…³ birth…⁴ sex   gender homew…⁵
##    <chr>        <int> <dbl> <chr>   <chr>   <chr>     <dbl> <chr> <chr>  <chr>  
##  1 Luke Skywa…    172    77 blond   fair    blue       19   male  mascu… Tatooi…
##  2 C-3PO          167    75 <NA>    gold    yellow    112   none  mascu… Tatooi…
##  3 R2-D2           96    32 <NA>    white,… red        33   none  mascu… Naboo  
##  4 Darth Vader    202   136 none    white   yellow     41.9 male  mascu… Tatooi…
##  5 Leia Organa    150    49 brown   light   brown      19   fema… femin… Aldera…
##  6 Owen Lars      178   120 brown,… light   blue       52   male  mascu… Tatooi…
##  7 Beru White…    165    75 brown   light   blue       47   fema… femin… Tatooi…
##  8 R5-D4           97    32 <NA>    white,… red        NA   none  mascu… Tatooi…
##  9 Biggs Dark…    183    84 black   light   brown      24   male  mascu… Tatooi…
## 10 Obi-Wan Ke…    182    77 auburn… fair    blue-g…    57   male  mascu… Stewjon
## # … with 77 more rows, 4 more variables: species <chr>, films <list>,
## #   vehicles <list>, starships <list>, and abbreviated variable names
## #   ¹​hair_color, ²​skin_color, ³​eye_color, ⁴​birth_year, ⁵​homeworld
```
…
.panel1-sw2-auto[

```r
starwars %>%
  group_by(species) %>%
* na.omit()
```
]
 
.panel2-sw2-auto[

```
## # A tibble: 29 × 14
## # Groups:   species [11]
##    name        height  mass hair_…¹ skin_…² eye_c…³ birth…⁴ sex   gender homew…⁵
##    <chr>        <int> <dbl> <chr>   <chr>   <chr>     <dbl> <chr> <chr>  <chr>  
##  1 Luke Skywa…    172    77 blond   fair    blue       19   male  mascu… Tatooi…
##  2 Darth Vader    202   136 none    white   yellow     41.9 male  mascu… Tatooi…
##  3 Leia Organa    150    49 brown   light   brown      19   fema… femin… Aldera…
##  4 Owen Lars      178   120 brown,… light   blue       52   male  mascu… Tatooi…
##  5 Beru White…    165    75 brown   light   blue       47   fema… femin… Tatooi…
##  6 Biggs Dark…    183    84 black   light   brown      24   male  mascu… Tatooi…
##  7 Obi-Wan Ke…    182    77 auburn… fair    blue-g…    57   male  mascu… Stewjon
##  8 Anakin Sky…    188    84 blond   fair    blue       41.9 male  mascu… Tatooi…
##  9 Chewbacca      228   112 brown   unknown blue      200   male  mascu… Kashyy…
## 10 Han Solo       180    80 brown   fair    brown      29   male  mascu… Corell…
## # … with 19 more rows, 4 more variables: species <chr>, films <list>,
## #   vehicles <list>, starships <list>, and abbreviated variable names
## #   ¹​hair_color, ²​skin_color, ³​eye_color, ⁴​birth_year, ⁵​homeworld
```
…
**Median**

count: false

.panel1-sw4-auto[

```r
*starwars
```
]
 
.panel2-sw4-auto[

```
## # A tibble: 87 × 14
##    name        height  mass hair_…¹ skin_…² eye_c…³ birth…⁴ sex   gender homew…⁵
##    <chr>        <int> <dbl> <chr>   <chr>   <chr>     <dbl> <chr> <chr>  <chr>  
##  1 Luke Skywa…    172    77 blond   fair    blue       19   male  mascu… Tatooi…
##  2 C-3PO          167    75 <NA>    gold    yellow    112   none  mascu… Tatooi…
##  3 R2-D2           96    32 <NA>    white,… red        33   none  mascu… Naboo  
##  4 Darth Vader    202   136 none    white   yellow     41.9 male  mascu… Tatooi…
##  5 Leia Organa    150    49 brown   light   brown      19   fema… femin… Aldera…
##  6 Owen Lars      178   120 brown,… light   blue       52   male  mascu… Tatooi…
##  7 Beru White…    165    75 brown   light   blue       47   fema… femin… Tatooi…
##  8 R5-D4           97    32 <NA>    white,… red        NA   none  mascu… Tatooi…
##  9 Biggs Dark…    183    84 black   light   brown      24   male  mascu… Tatooi…
## 10 Obi-Wan Ke…    182    77 auburn… fair    blue-g…    57   male  mascu… Stewjon
## # … with 77 more rows, 4 more variables: species <chr>, films <list>,
## #   vehicles <list>, starships <list>, and abbreviated variable names
## #   ¹​hair_color, ²​skin_color, ³​eye_color, ⁴​birth_year, ⁵​homeworld
```
…
---
count: false

.panel1-sw4-auto[

```r
starwars %>%
* group_by(species)
```
]
 
.panel2-sw4-auto[

```
## # A tibble: 87 × 14
## # Groups:   species [38]
##    name        height  mass hair_…¹ skin_…² eye_c…³ birth…⁴ sex   gender homew…⁵
##    <chr>        <int> <dbl> <chr>   <chr>   <chr>     <dbl> <chr> <chr>  <chr>  
##  1 Luke Skywa…    172    77 blond   fair    blue       19   male  mascu… Tatooi…
##  2 C-3PO          167    75 <NA>    gold    yellow    112   none  mascu… Tatooi…
##  3 R2-D2           96    32 <NA>    white,… red        33   none  mascu… Naboo  
##  4 Darth Vader    202   136 none    white   yellow     41.9 male  mascu… Tatooi…
##  5 Leia Organa    150    49 brown   light   brown      19   fema… femin… Aldera…
##  6 Owen Lars      178   120 brown,… light   blue       52   male  mascu… Tatooi…
##  7 Beru White…    165    75 brown   light   blue       47   fema… femin… Tatooi…
##  8 R5-D4           97    32 <NA>    white,… red        NA   none  mascu… Tatooi…
##  9 Biggs Dark…    183    84 black   light   brown      24   male  mascu… Tatooi…
## 10 Obi-Wan Ke…    182    77 auburn… fair    blue-g…    57   male  mascu… Stewjon
## # … with 77 more rows, 4 more variables: species <chr>, films <list>,
## #   vehicles <list>, starships <list>, and abbreviated variable names
## #   ¹​hair_color, ²​skin_color, ³​eye_color, ⁴​birth_year, ⁵​homeworld
```
…
.panel1-sw4-auto[

```r
starwars %>%
  group_by(species) %>%
* na.omit()
```
]
 
.panel2-sw4-auto[

```
## # A tibble: 29 × 14
## # Groups:   species [11]
##    name        height  mass hair_…¹ skin_…² eye_c…³ birth…⁴ sex   gender homew…⁵
##    <chr>        <int> <dbl> <chr>   <chr>   <chr>     <dbl> <chr> <chr>  <chr>  
##  1 Luke Skywa…    172    77 blond   fair    blue       19   male  mascu… Tatooi…
##  2 Darth Vader    202   136 none    white   yellow     41.9 male  mascu… Tatooi…
##  3 Leia Organa    150    49 brown   light   brown      19   fema… femin… Aldera…
##  4 Owen Lars      178   120 brown,… light   blue       52   male  mascu… Tatooi…
##  5 Beru White…    165    75 brown   light   blue       47   fema… femin… Tatooi…
##  6 Biggs Dark…    183    84 black   light   brown      24   male  mascu… Tatooi…
##  7 Obi-Wan Ke…    182    77 auburn… fair    blue-g…    57   male  mascu… Stewjon
##  8 Anakin Sky…    188    84 blond   fair    blue       41.9 male  mascu… Tatooi…
##  9 Chewbacca      228   112 brown   unknown blue      200   male  mascu… Kashyy…
## 10 Han Solo       180    80 brown   fair    brown      29   male  mascu… Corell…
## # … with 19 more rows, 4 more variables: species <chr>, films <list>,
## #   vehicles <list>, starships <list>, and abbreviated variable names
## #   ¹​hair_color, ²​skin_color, ³​eye_color, ⁴​birth_year, ⁵​homeworld
```
…
Then you can find the `Mode`

count: false

.panel1-sw5-auto[

```r
*starwars
```
]
 
.panel2-sw5-auto[

```
## # A tibble: 87 × 14
##    name        height  mass hair_…¹ skin_…² eye_c…³ birth…⁴ sex   gender homew…⁵
##    <chr>        <int> <dbl> <chr>   <chr>   <chr>     <dbl> <chr> <chr>  <chr>  
##  1 Luke Skywa…    172    77 blond   fair    blue       19   male  mascu… Tatooi…
##  2 C-3PO          167    75 <NA>    gold    yellow    112   none  mascu… Tatooi…
##  3 R2-D2           96    32 <NA>    white,… red        33   none  mascu… Naboo  
##  4 Darth Vader    202   136 none    white   yellow     41.9 male  mascu… Tatooi…
##  5 Leia Organa    150    49 brown   light   brown      19   fema… femin… Aldera…
##  6 Owen Lars      178   120 brown,… light   blue       52   male  mascu… Tatooi…
##  7 Beru White…    165    75 brown   light   blue       47   fema… femin… Tatooi…
##  8 R5-D4           97    32 <NA>    white,… red        NA   none  mascu… Tatooi…
##  9 Biggs Dark…    183    84 black   light   brown      24   male  mascu… Tatooi…
## 10 Obi-Wan Ke…    182    77 auburn… fair    blue-g…    57   male  mascu… Stewjon
## # … with 77 more rows, 4 more variables: species <chr>, films <list>,
## #   vehicles <list>, starships <list>, and abbreviated variable names
## #   ¹​hair_color, ²​skin_color, ³​eye_color, ⁴​birth_year, ⁵​homeworld
```
…
---
count: false

.panel1-sw5-auto[

```r
starwars %>%
* group_by(species)
```
]
 
.panel2-sw5-auto[

```
## # A tibble: 87 × 14
## # Groups:   species [38]
##    name        height  mass hair_…¹ skin_…² eye_c…³ birth…⁴ sex   gender homew…⁵
##    <chr>        <int> <dbl> <chr>   <chr>   <chr>     <dbl> <chr> <chr>  <chr>  
##  1 Luke Skywa…    172    77 blond   fair    blue       19   male  mascu… Tatooi…
##  2 C-3PO          167    75 <NA>    gold    yellow    112   none  mascu… Tatooi…
##  3 R2-D2           96    32 <NA>    white,… red        33   none  mascu… Naboo  
##  4 Darth Vader    202   136 none    white   yellow     41.9 male  mascu… Tatooi…
##  5 Leia Organa    150    49 brown   light   brown      19   fema… femin… Aldera…
##  6 Owen Lars      178   120 brown,… light   blue       52   male  mascu… Tatooi…
##  7 Beru White…    165    75 brown   light   blue       47   fema… femin… Tatooi…
##  8 R5-D4           97    32 <NA>    white,… red        NA   none  mascu… Tatooi…
##  9 Biggs Dark…    183    84 black   light   brown      24   male  mascu… Tatooi…
## 10 Obi-Wan Ke…    182    77 auburn… fair    blue-g…    57   male  mascu… Stewjon
## # … with 77 more rows, 4 more variables: species <chr>, films <list>,
## #   vehicles <list>, starships <list>, and abbreviated variable names
## #   ¹​hair_color, ²​skin_color, ³​eye_color, ⁴​birth_year, ⁵​homeworld
```
…
.panel1-sw5-auto[

```r
starwars %>%
  group_by(species) %>%
* na.omit()
```
]
 
.panel2-sw5-auto[

```
## # A tibble: 29 × 14
## # Groups:   species [11]
##    name        height  mass hair_…¹ skin_…² eye_c…³ birth…⁴ sex   gender homew…⁵
##    <chr>        <int> <dbl> <chr>   <chr>   <chr>     <dbl> <chr> <chr>  <chr>  
##  1 Luke Skywa…    172    77 blond   fair    blue       19   male  mascu… Tatooi…
##  2 Darth Vader    202   136 none    white   yellow     41.9 male  mascu… Tatooi…
##  3 Leia Organa    150    49 brown   light   brown      19   fema… femin… Aldera…
##  4 Owen Lars      178   120 brown,… light   blue       52   male  mascu… Tatooi…
##  5 Beru White…    165    75 brown   light   blue       47   fema… femin… Tatooi…
##  6 Biggs Dark…    183    84 black   light   brown      24   male  mascu… Tatooi…
##  7 Obi-Wan Ke…    182    77 auburn… fair    blue-g…    57   male  mascu… Stewjon
##  8 Anakin Sky…    188    84 blond   fair    blue       41.9 male  mascu… Tatooi…
##  9 Chewbacca      228   112 brown   unknown blue      200   male  mascu… Kashyy…
## 10 Han Solo       180    80 brown   fair    brown      29   male  mascu… Corell…
## # … with 19 more rows, 4 more variables: species <chr>, films <list>,
## #   vehicles <list>, starships <list>, and abbreviated variable names
## #   ¹​hair_color, ²​skin_color, ³​eye_color, ⁴​birth_year, ⁵​homeworld
```
…
count: false

.panel1-sw6-auto[

```r
*starwars
```
]
 
.panel2-sw6-auto[

```
## # A tibble: 87 × 14
##    name        height  mass hair_…¹ skin_…² eye_c…³ birth…⁴ sex   gender homew…⁵
##    <chr>        <int> <dbl> <chr>   <chr>   <chr>     <dbl> <chr> <chr>  <chr>  
##  1 Luke Skywa…    172    77 blond   fair    blue       19   male  mascu… Tatooi…
##  2 C-3PO          167    75 <NA>    gold    yellow    112   none  mascu… Tatooi…
##  3 R2-D2           96    32 <NA>    white,… red        33   none  mascu… Naboo  
##  4 Darth Vader    202   136 none    white   yellow     41.9 male  mascu… Tatooi…
##  5 Leia Organa    150    49 brown   light   brown      19   fema… femin… Aldera…
##  6 Owen Lars      178   120 brown,… light   blue       52   male  mascu… Tatooi…
##  7 Beru White…    165    75 brown   light   blue       47   fema… femin… Tatooi…
##  8 R5-D4           97    32 <NA>    white,… red        NA   none  mascu… Tatooi…
##  9 Biggs Dark…    183    84 black   light   brown      24   male  mascu… Tatooi…
## 10 Obi-Wan Ke…    182    77 auburn… fair    blue-g…    57   male  mascu… Stewjon
## # … with 77 more rows, 4 more variables: species <chr>, films <list>,
## #   vehicles <list>, starships <list>, and abbreviated variable names
## #   ¹​hair_color, ²​skin_color, ³​eye_color, ⁴​birth_year, ⁵​homeworld
```
…
count: false

.panel1-sw7-auto[

```r
*starwars
```
]
 
.panel2-sw7-auto[

```
## # A tibble: 87 × 14
##    name        height  mass hair_…¹ skin_…² eye_c…³ birth…⁴ sex   gender homew…⁵
##    <chr>        <int> <dbl> <chr>   <chr>   <chr>     <dbl> <chr> <chr>  <chr>  
##  1 Luke Skywa…    172    77 blond   fair    blue       19   male  mascu… Tatooi…
##  2 C-3PO          167    75 <NA>    gold    yellow    112   none  mascu… Tatooi…
##  3 R2-D2           96    32 <NA>    white,… red        33   none  mascu… Naboo  
##  4 Darth Vader    202   136 none    white   yellow     41.9 male  mascu… Tatooi…
##  5 Leia Organa    150    49 brown   light   brown      19   fema… femin… Aldera…
##  6 Owen Lars      178   120 brown,… light   blue       52   male  mascu… Tatooi…
##  7 Beru White…    165    75 brown   light   blue       47   fema… femin… Tatooi…
##  8 R5-D4           97    32 <NA>    white,… red        NA   none  mascu… Tatooi…
##  9 Biggs Dark…    183    84 black   light   brown      24   male  mascu… Tatooi…
## 10 Obi-Wan Ke…    182    77 auburn… fair    blue-g…    57   male  mascu… Stewjon
## # … with 77 more rows, 4 more variables: species <chr>, films <list>,
## #   vehicles <list>, starships <list>, and abbreviated variable names
## #   ¹​hair_color, ²​skin_color, ³​eye_color, ⁴​birth_year, ⁵​homeworld
```
…
---
count: false

.panel1-sw7-auto[

```r
starwars %>%
* group_by(species)
```
]
 
.panel2-sw7-auto[

```
## # A tibble: 87 × 14
## # Groups:   species [38]
##    name        height  mass hair_…¹ skin_…² eye_c…³ birth…⁴ sex   gender homew…⁵
##    <chr>        <int> <dbl> <chr>   <chr>   <chr>     <dbl> <chr> <chr>  <chr>  
##  1 Luke Skywa…    172    77 blond   fair    blue       19   male  mascu… Tatooi…
##  2 C-3PO          167    75 <NA>    gold    yellow    112   none  mascu… Tatooi…
##  3 R2-D2           96    32 <NA>    white,… red        33   none  mascu… Naboo  
##  4 Darth Vader    202   136 none    white   yellow     41.9 male  mascu… Tatooi…
##  5 Leia Organa    150    49 brown   light   brown      19   fema… femin… Aldera…
##  6 Owen Lars      178   120 brown,… light   blue       52   male  mascu… Tatooi…
##  7 Beru White…    165    75 brown   light   blue       47   fema… femin… Tatooi…
##  8 R5-D4           97    32 <NA>    white,… red        NA   none  mascu… Tatooi…
##  9 Biggs Dark…    183    84 black   light   brown      24   male  mascu… Tatooi…
## 10 Obi-Wan Ke…    182    77 auburn… fair    blue-g…    57   male  mascu… Stewjon
## # … with 77 more rows, 4 more variables: species <chr>, films <list>,
## #   vehicles <list>, starships <list>, and abbreviated variable names
## #   ¹​hair_color, ²​skin_color, ³​eye_color, ⁴​birth_year, ⁵​homeworld
```
…
