Testing Hypothesis and Measuring Confidence
…
.right[<svg style="height:0.8em;top:.04em;position:relative;fill:#4682b4;" viewBox="0 0 512 512"><path d="M500.5 231.4l-192-160C287.9 54.3 256 68.6 256 96v320c0 27.4 31.9 41.8 52.5 24.6l192-160c15.3-12.8 15.3-36.4 0-49.2zm-256 0l-192-160C31.9 54.3 0 68.6 0 96v320c0 27.4 31.9 41.8 52.5 24.6l192-160c15.3-12.8 15.3-36.4 0-49.2z"/></svg>]

---

```
## # A tibble: 411,516 x 2
##    genre       value
##    <chr>       <int>
##  1 Action          0
##  2 Animation       0
##  3 Comedy          1
##  4 Drama           1
##  5 Documentary     0
##  6 Romance         0
##  7 Short           0
##  8 Action          0
##  9 Animation       0
## 10 Comedy          1
## # … with 411,506 more rows
```
…
