Pivoting and Measuring Confidence
…
Let's take a look at a bar chart of the genres. But wait, those are in a bunch of columns and R likes its data in long form! To get the data set to this form, let's first select the columns we need and then use a command called `pivot_longer` which emulates a pivot table in Excel. 

count: false

.panel1-sw1-auto[

```r
*ggplot2movies::movies
```
]
 
.panel2-sw1-auto[

```
## # A tibble: 58,788 × 24
##    title     year length budget rating votes    r1    r2    r3    r4    r5    r6
##    <chr>    <int>  <int>  <int>  <dbl> <int> <dbl> <dbl> <dbl> <dbl> <dbl> <dbl>
##  1 $         1971    121     NA    6.4   348   4.5   4.5   4.5   4.5  14.5  24.5
##  2 $1000 a…  1939     71     NA    6      20   0    14.5   4.5  24.5  14.5  14.5
##  3 $21 a D…  1941      7     NA    8.2     5   0     0     0     0     0    24.5
##  4 $40,000   1996     70     NA    8.2     6  14.5   0     0     0     0     0  
##  5 $50,000…  1975     71     NA    3.4    17  24.5   4.5   0    14.5  14.5   4.5
##  6 $pent     2000     91     NA    4.3    45   4.5   4.5   4.5  14.5  14.5  14.5
##  7 $windle   2002     93     NA    5.3   200   4.5   0     4.5   4.5  24.5  24.5
##  8 '15'      2002     25     NA    6.7    24   4.5   4.5   4.5   4.5   4.5  14.5
##  9 '38       1987     97     NA    6.6    18   4.5   4.5   4.5   0     0     0  
## 10 '49-'17   1917     61     NA    6      51   4.5   0     4.5   4.5   4.5  44.5
## # … with 58,778 more rows, and 12 more variables: r7 <dbl>, r8 <dbl>, r9 <dbl>,
## #   r10 <dbl>, mpaa <chr>, Action <int>, Animation <int>, Comedy <int>,
## #   Drama <int>, Documentary <int>, Romance <int>, Short <int>
```
…
.panel1-sw1-auto[

```r
ggplot2movies::movies %>%
* select(Action, Animation, Comedy,
*        Drama, Documentary, Romance,
*        Short)
```
]
 
.panel2-sw1-auto[

```
## # A tibble: 58,788 × 7
##    Action Animation Comedy Drama Documentary Romance Short
##     <int>     <int>  <int> <int>       <int>   <int> <int>
##  1      0         0      1     1           0       0     0
##  2      0         0      1     0           0       0     0
##  3      0         1      0     0           0       0     1
##  4      0         0      1     0           0       0     0
##  5      0         0      0     0           0       0     0
##  6      0         0      0     1           0       0     0
##  7      1         0      0     1           0       0     0
##  8      0         0      0     0           1       0     1
##  9      0         0      0     1           0       0     0
## 10      0         0      0     0           0       0     0
## # … with 58,778 more rows
```
…
.panel2-sw1-auto[

```
## # A tibble: 411,516 × 2
##    genre       value
##    <chr>       <int>
##  1 Action          0
##  2 Animation       0
##  3 Comedy          1
##  4 Drama           1
##  5 Documentary     0
##  6 Romance         0
##  7 Short           0
##  8 Action          0
##  9 Animation       0
## 10 Comedy          1
## # … with 411,506 more rows
```
…
Now that we know how to pivot, we can just `group_by` genre type and then `tally`

count: false

.panel1-sw3-auto[

```r
*ggplot2movies::movies
```
]
 
.panel2-sw3-auto[

```
## # A tibble: 58,788 × 24
##    title     year length budget rating votes    r1    r2    r3    r4    r5    r6
##    <chr>    <int>  <int>  <int>  <dbl> <int> <dbl> <dbl> <dbl> <dbl> <dbl> <dbl>
##  1 $         1971    121     NA    6.4   348   4.5   4.5   4.5   4.5  14.5  24.5
##  2 $1000 a…  1939     71     NA    6      20   0    14.5   4.5  24.5  14.5  14.5
##  3 $21 a D…  1941      7     NA    8.2     5   0     0     0     0     0    24.5
##  4 $40,000   1996     70     NA    8.2     6  14.5   0     0     0     0     0  
##  5 $50,000…  1975     71     NA    3.4    17  24.5   4.5   0    14.5  14.5   4.5
##  6 $pent     2000     91     NA    4.3    45   4.5   4.5   4.5  14.5  14.5  14.5
##  7 $windle   2002     93     NA    5.3   200   4.5   0     4.5   4.5  24.5  24.5
##  8 '15'      2002     25     NA    6.7    24   4.5   4.5   4.5   4.5   4.5  14.5
##  9 '38       1987     97     NA    6.6    18   4.5   4.5   4.5   0     0     0  
## 10 '49-'17   1917     61     NA    6      51   4.5   0     4.5   4.5   4.5  44.5
## # … with 58,778 more rows, and 12 more variables: r7 <dbl>, r8 <dbl>, r9 <dbl>,
## #   r10 <dbl>, mpaa <chr>, Action <int>, Animation <int>, Comedy <int>,
## #   Drama <int>, Documentary <int>, Romance <int>, Short <int>
```
…
.panel1-sw3-auto[

```r
ggplot2movies::movies %>%
* select(Action, Animation, Comedy,
*        Drama, Documentary, Romance,
*        Short)
```
]
 
.panel2-sw3-auto[

```
## # A tibble: 58,788 × 7
##    Action Animation Comedy Drama Documentary Romance Short
##     <int>     <int>  <int> <int>       <int>   <int> <int>
##  1      0         0      1     1           0       0     0
##  2      0         0      1     0           0       0     0
##  3      0         1      0     0           0       0     1
##  4      0         0      1     0           0       0     0
##  5      0         0      0     0           0       0     0
##  6      0         0      0     1           0       0     0
##  7      1         0      0     1           0       0     0
##  8      0         0      0     0           1       0     1
##  9      0         0      0     1           0       0     0
## 10      0         0      0     0           0       0     0
## # … with 58,778 more rows
```
…
```r
ggplot2movies::movies %>%
  select(Action, Animation, Comedy,
         Drama, Documentary, Romance,
         Short) %>%
* pivot_longer(everything(),
*              names_to = "genre")
```
]
 
.panel2-sw3-auto[

```
## # A tibble: 411,516 × 2
##    genre       value
##    <chr>       <int>
##  1 Action          0
##  2 Animation       0
##  3 Comedy          1
##  4 Drama           1
##  5 Documentary     0
##  6 Romance         0
##  7 Short           0
##  8 Action          0
##  9 Animation       0
## 10 Comedy          1
## # … with 411,506 more rows
```
…
```r
ggplot2movies::movies %>%
  select(Action, Animation, Comedy,
         Drama, Documentary, Romance,
         Short) %>%
  pivot_longer(everything(),
               names_to = "genre") %>%
* group_by(genre)
```
]
 
.panel2-sw3-auto[

```
## # A tibble: 411,516 × 2
## # Groups:   genre [7]
##    genre       value
##    <chr>       <int>
##  1 Action          0
##  2 Animation       0
##  3 Comedy          1
##  4 Drama           1
##  5 Documentary     0
##  6 Romance         0
##  7 Short           0
##  8 Action          0
##  9 Animation       0
## 10 Comedy          1
## # … with 411,506 more rows
```
…
Let's take a look at the ratings

count: false

.panel1-sw5-auto[

```r
*ggplot2movies::movies
```
]
 
.panel2-sw5-auto[

```
## # A tibble: 58,788 × 24
##    title     year length budget rating votes    r1    r2    r3    r4    r5    r6
##    <chr>    <int>  <int>  <int>  <dbl> <int> <dbl> <dbl> <dbl> <dbl> <dbl> <dbl>
##  1 $         1971    121     NA    6.4   348   4.5   4.5   4.5   4.5  14.5  24.5
##  2 $1000 a…  1939     71     NA    6      20   0    14.5   4.5  24.5  14.5  14.5
##  3 $21 a D…  1941      7     NA    8.2     5   0     0     0     0     0    24.5
##  4 $40,000   1996     70     NA    8.2     6  14.5   0     0     0     0     0  
##  5 $50,000…  1975     71     NA    3.4    17  24.5   4.5   0    14.5  14.5   4.5
##  6 $pent     2000     91     NA    4.3    45   4.5   4.5   4.5  14.5  14.5  14.5
##  7 $windle   2002     93     NA    5.3   200   4.5   0     4.5   4.5  24.5  24.5
##  8 '15'      2002     25     NA    6.7    24   4.5   4.5   4.5   4.5   4.5  14.5
##  9 '38       1987     97     NA    6.6    18   4.5   4.5   4.5   0     0     0  
## 10 '49-'17   1917     61     NA    6      51   4.5   0     4.5   4.5   4.5  44.5
## # … with 58,778 more rows, and 12 more variables: r7 <dbl>, r8 <dbl>, r9 <dbl>,
## #   r10 <dbl>, mpaa <chr>, Action <int>, Animation <int>, Comedy <int>,
## #   Drama <int>, Documentary <int>, Romance <int>, Short <int>
```
…
---
count: false

.panel1-sw8-auto[

```r
resample(movies_sample) %>%
* arrange(orig.id)
```
]
 
.panel2-sw8-auto[

```
## # A tibble: 70 × 25
##    title     year length budget rating votes    r1    r2    r3    r4    r5    r6
##    <chr>    <int>  <int>  <int>  <dbl> <int> <dbl> <dbl> <dbl> <dbl> <dbl> <dbl>
##  1 Proud R…  1958    103     NA    6.3    95   4.5   4.5   0     4.5   4.5  24.5
##  2 Heart o…  1938     83 400000    5.1    10   0    14.5   0    24.5  24.5  34.5
##  3 Heart o…  1938     83 400000    5.1    10   0    14.5   0    24.5  24.5  34.5
##  4 Twelve …  1970     94     NA    6.6   524   4.5   4.5   4.5   4.5   4.5  14.5
##  5 Polaroid  2000     96     NA    5.6    11   0    14.5   0     0     4.5   0  
##  6 Polaroid  2000     96     NA    5.6    11   0    14.5   0     0     4.5   0  
##  7 Liquida…  1965    105     NA    5.4   136   0     4.5   4.5   4.5  24.5  14.5
##  8 Liquida…  1965    105     NA    5.4   136   0     4.5   4.5   4.5  24.5  14.5
##  9 Oscar a…  1997    132     NA    6.7  1784   4.5   4.5   4.5   4.5   4.5  14.5
## 10 Wholly …  1980    103     NA    4.3   408  14.5   4.5  14.5  14.5  14.5  14.5
## # … with 60 more rows, and 13 more variables: r7 <dbl>, r8 <dbl>, r9 <dbl>,
## #   r10 <dbl>, mpaa <chr>, Action <int>, Animation <int>, Comedy <int>,
## #   Drama <int>, Documentary <int>, Romance <int>, Short <int>, orig.id <chr>
```
…
