Sentiment Analysis
…
## Selecting Needed Columns

--

```r
rickmorty_selected <-
  rickmorty %>%
  select(index, line)

rickmorty_selected
```

```
## # A tibble: 1,905 × 2
##    index line                                                                                                    
##    <dbl> <chr>                                                                                                   
##  1     0 Morty! You gotta come on. Jus'... you gotta come with me.                                               
##  2     1 What, Rick? What’s going on?                                                                            
##  3     2 I got a surprise for you, Morty.                                                                        
##  4     3 It's the middle of the night. What are you talking about?                                               
##  5     4 Come on, I got a surprise for you.  Come on, hurry up.                                                  
##  6     5 Ow! Ow! You're tugging me too hard!                                                                     
##  7     6 We gotta go, gotta get outta here, come on. Got a surprise for you Morty.                               
##  8     7 What do you think of this... flying vehicle, Morty? I built it outta stuff I found in the garage.       
##  9     8 Yeah, Rick... I-it's great. Is this the surprise?                                                       
## 10     9 Morty. I had to... I had to do it. I had— I had to— I had to make a bomb, Morty. I had to create a bomb.
## # … with 1,895 more rows
```
…
```
## Joining, by = "word"
```

```r
tidy_script
```

```
## # A tibble: 8,513 × 2
##    index word    
##    <dbl> <chr>   
##  1     0 morty   
##  2     0 gotta   
##  3     0 jus     
##  4     0 gotta   
##  5     1 rick    
##  6     1 what’s  
##  7     2 surprise
##  8     2 morty   
##  9     3 middle  
## 10     3 night   
## # … with 8,503 more rows
```
…
---

count: false

.panel1-sw1-auto[

```r
*tidy_script
```
]
 
.panel2-sw1-auto[

```
## # A tibble: 8,513 × 2
##    index word    
##    <dbl> <chr>   
##  1     0 morty   
##  2     0 gotta   
##  3     0 jus     
##  4     0 gotta   
##  5     1 rick    
##  6     1 what’s  
##  7     2 surprise
##  8     2 morty   
##  9     3 middle  
## 10     3 night   
## # … with 8,503 more rows
```
…
---
count: false

.panel1-sw1-auto[

```r
tidy_script %>%
* count(word, sort = TRUE)
```
]
 
.panel2-sw1-auto[

```
## # A tibble: 3,072 × 2
##    word      n
##    <chr> <int>
##  1 morty   334
##  2 rick    169
##  3 gonna   113
##  4 time     89
##  5 yeah     78
##  6 uh       53
##  7 whoa     53
##  8 jerry    50
##  9 god      48
## 10 guys     48
## # … with 3,062 more rows
```
…
---

count: false

.panel1-sw2-auto[

```r
*tidy_script
```
]
 
.panel2-sw2-auto[

```
## # A tibble: 8,513 × 2
##    index word    
##    <dbl> <chr>   
##  1     0 morty   
##  2     0 gotta   
##  3     0 jus     
##  4     0 gotta   
##  5     1 rick    
##  6     1 what’s  
##  7     2 surprise
##  8     2 morty   
##  9     3 middle  
## 10     3 night   
## # … with 8,503 more rows
```
…
---
count: false

.panel1-sw2-auto[

```r
tidy_script  %>%
* count(word, sort = TRUE)
```
]
 
.panel2-sw2-auto[

```
## # A tibble: 3,072 × 2
##    word      n
##    <chr> <int>
##  1 morty   334
##  2 rick    169
##  3 gonna   113
##  4 time     89
##  5 yeah     78
##  6 uh       53
##  7 whoa     53
##  8 jerry    50
##  9 god      48
## 10 guys     48
## # … with 3,062 more rows
```
…
.panel1-sw2-auto[

```r
tidy_script  %>%
  count(word, sort = TRUE) %>%
* mutate(word = reorder(word, n))
```
]
 
.panel2-sw2-auto[

```
## # A tibble: 3,072 × 2
##    word      n
##    <fct> <int>
##  1 morty   334
##  2 rick    169
##  3 gonna   113
##  4 time     89
##  5 yeah     78
##  6 uh       53
##  7 whoa     53
##  8 jerry    50
##  9 god      48
## 10 guys     48
## # … with 3,062 more rows
```
…
---

count: false

.panel1-sw3-auto[

```r
*tidy_script
```
]
 
.panel2-sw3-auto[

```
## # A tibble: 8,513 × 2
##    index word    
##    <dbl> <chr>   
##  1     0 morty   
##  2     0 gotta   
##  3     0 jus     
##  4     0 gotta   
##  5     1 rick    
##  6     1 what’s  
##  7     2 surprise
##  8     2 morty   
##  9     3 middle  
## 10     3 night   
## # … with 8,503 more rows
```
…
---
count: false

.panel1-sw3-auto[

```r
tidy_script  %>%
* count(word, sort = TRUE)
```
]
 
.panel2-sw3-auto[

```
## # A tibble: 3,072 × 2
##    word      n
##    <chr> <int>
##  1 morty   334
##  2 rick    169
##  3 gonna   113
##  4 time     89
##  5 yeah     78
##  6 uh       53
##  7 whoa     53
##  8 jerry    50
##  9 god      48
## 10 guys     48
## # … with 3,062 more rows
```
…
.panel1-sw3-auto[

```r
tidy_script  %>%
  count(word, sort = TRUE) %>%
* filter(n > 2)
```
]
 
.panel2-sw3-auto[

```
## # A tibble: 687 × 2
##    word      n
##    <chr> <int>
##  1 morty   334
##  2 rick    169
##  3 gonna   113
##  4 time     89
##  5 yeah     78
##  6 uh       53
##  7 whoa     53
##  8 jerry    50
##  9 god      48
## 10 guys     48
## # … with 677 more rows
```
…
.panel1-sw3-auto[

```r
tidy_script  %>%
  count(word, sort = TRUE) %>%
  filter(n > 2) %>%
* mutate(word = reorder(word, n))
```
]
 
.panel2-sw3-auto[

```
## # A tibble: 687 × 2
##    word      n
##    <fct> <int>
##  1 morty   334
##  2 rick    169
##  3 gonna   113
##  4 time     89
##  5 yeah     78
##  6 uh       53
##  7 whoa     53
##  8 jerry    50
##  9 god      48
## 10 guys     48
## # … with 677 more rows
```
…
---

count: false

.panel1-sw4-auto[

```r
*tidy_script
```
]
 
.panel2-sw4-auto[

```
## # A tibble: 8,513 × 2
##    index word    
##    <dbl> <chr>   
##  1     0 morty   
##  2     0 gotta   
##  3     0 jus     
##  4     0 gotta   
##  5     1 rick    
##  6     1 what’s  
##  7     2 surprise
##  8     2 morty   
##  9     3 middle  
## 10     3 night   
## # … with 8,503 more rows
```
…
---
count: false

.panel1-sw4-auto[

```r
tidy_script  %>%
* count(word, sort = TRUE)
```
]
 
.panel2-sw4-auto[

```
## # A tibble: 3,072 × 2
##    word      n
##    <chr> <int>
##  1 morty   334
##  2 rick    169
##  3 gonna   113
##  4 time     89
##  5 yeah     78
##  6 uh       53
##  7 whoa     53
##  8 jerry    50
##  9 god      48
## 10 guys     48
## # … with 3,062 more rows
```
…
.panel1-sw4-auto[

```r
tidy_script  %>%
  count(word, sort = TRUE) %>%
* filter(n > 10)
```
]
 
.panel2-sw4-auto[

```
## # A tibble: 126 × 2
##    word      n
##    <chr> <int>
##  1 morty   334
##  2 rick    169
##  3 gonna   113
##  4 time     89
##  5 yeah     78
##  6 uh       53
##  7 whoa     53
##  8 jerry    50
##  9 god      48
## 10 guys     48
## # … with 116 more rows
```
…
.panel1-sw4-auto[

```r
tidy_script  %>%
  count(word, sort = TRUE) %>%
  filter(n > 10) %>%
* mutate(word = reorder(word, n))
```
]
 
.panel2-sw4-auto[

```
## # A tibble: 126 × 2
##    word      n
##    <fct> <int>
##  1 morty   334
##  2 rick    169
##  3 gonna   113
##  4 time     89
##  5 yeah     78
##  6 uh       53
##  7 whoa     53
##  8 jerry    50
##  9 god      48
## 10 guys     48
## # … with 116 more rows
```
…
---

count: false

.panel1-sw5-auto[

```r
*tidy_script
```
]
 
.panel2-sw5-auto[

```
## # A tibble: 8,513 × 2
##    index word    
##    <dbl> <chr>   
##  1     0 morty   
##  2     0 gotta   
##  3     0 jus     
##  4     0 gotta   
##  5     1 rick    
##  6     1 what’s  
##  7     2 surprise
##  8     2 morty   
##  9     3 middle  
## 10     3 night   
## # … with 8,503 more rows
```
…
---
count: false

.panel1-sw5-auto[

```r
tidy_script %>%
* count(word, sort = TRUE)
```
]
 
.panel2-sw5-auto[

```
## # A tibble: 3,072 × 2
##    word      n
##    <chr> <int>
##  1 morty   334
##  2 rick    169
##  3 gonna   113
##  4 time     89
##  5 yeah     78
##  6 uh       53
##  7 whoa     53
##  8 jerry    50
##  9 god      48
## 10 guys     48
## # … with 3,062 more rows
```
…
.panel1-sw5-auto[

```r
tidy_script %>%
  count(word, sort = TRUE) %>%
* filter(n > 20)
```
]
 
.panel2-sw5-auto[

```
## # A tibble: 37 × 2
##    word      n
##    <chr> <int>
##  1 morty   334
##  2 rick    169
##  3 gonna   113
##  4 time     89
##  5 yeah     78
##  6 uh       53
##  7 whoa     53
##  8 jerry    50
##  9 god      48
## 10 guys     48
## # … with 27 more rows
```
…
.panel1-sw5-auto[

```r
tidy_script %>%
  count(word, sort = TRUE) %>%
  filter(n > 20) %>%
* mutate(word = reorder(word, n))
```
]
 
.panel2-sw5-auto[

```
## # A tibble: 37 × 2
##    word      n
##    <fct> <int>
##  1 morty   334
##  2 rick    169
##  3 gonna   113
##  4 time     89
##  5 yeah     78
##  6 uh       53
##  7 whoa     53
##  8 jerry    50
##  9 god      48
## 10 guys     48
## # … with 27 more rows
```
…
---

count: false

.panel1-sw6-auto[

```r
* rickmorty_selected
```
]
 
.panel2-sw6-auto[

```
## # A tibble: 1,905 × 2
##    index line                                                                                                    
##    <dbl> <chr>                                                                                                   
##  1     0 Morty! You gotta come on. Jus'... you gotta come with me.                                               
##  2     1 What, Rick? What’s going on?                                                                            
##  3     2 I got a surprise for you, Morty.                                                                        
##  4     3 It's the middle of the night. What are you talking about?                                               
##  5     4 Come on, I got a surprise for you.  Come on, hurry up.                                                  
##  6     5 Ow! Ow! You're tugging me too hard!                                                                     
##  7     6 We gotta go, gotta get outta here, come on. Got a surprise for you Morty.                               
##  8     7 What do you think of this... flying vehicle, Morty? I built it outta stuff I found in the garage.       
##  9     8 Yeah, Rick... I-it's great. Is this the surprise?                                                       
## 10     9 Morty. I had to... I had to do it. I had— I had to— I had to make a bomb, Morty. I had to create a bomb.
## # … with 1,895 more rows
```
…
---
count: false

.panel1-sw6-auto[

```r
  rickmorty_selected %>%
* mutate(line = str_remove_all(line, "Rick"))
```
]
 
.panel2-sw6-auto[

```
## # A tibble: 1,905 × 2
##    index line                                                                                                    
##    <dbl> <chr>                                                                                                   
##  1     0 Morty! You gotta come on. Jus'... you gotta come with me.                                               
##  2     1 What, ? What’s going on?                                                                                
##  3     2 I got a surprise for you, Morty.                                                                        
##  4     3 It's the middle of the night. What are you talking about?                                               
##  5     4 Come on, I got a surprise for you.  Come on, hurry up.                                                  
##  6     5 Ow! Ow! You're tugging me too hard!                                                                     
##  7     6 We gotta go, gotta get outta here, come on. Got a surprise for you Morty.                               
##  8     7 What do you think of this... flying vehicle, Morty? I built it outta stuff I found in the garage.       
##  9     8 Yeah, ... I-it's great. Is this the surprise?                                                           
## 10     9 Morty. I had to... I had to do it. I had— I had to— I had to make a bomb, Morty. I had to create a bomb.
## # … with 1,895 more rows
```
…
.panel1-sw6-auto[

```r
  rickmorty_selected %>%
  mutate(line = str_remove_all(line, "Rick")) %>%
* mutate(line = str_remove_all(line, "Morty"))
```
]
 
.panel2-sw6-auto[

```
## # A tibble: 1,905 × 2
##    index line                                                                                          
##    <dbl> <chr>                                                                                         
##  1     0 ! You gotta come on. Jus'... you gotta come with me.                                          
##  2     1 What, ? What’s going on?                                                                      
##  3     2 I got a surprise for you, .                                                                   
##  4     3 It's the middle of the night. What are you talking about?                                     
##  5     4 Come on, I got a surprise for you.  Come on, hurry up.                                        
##  6     5 Ow! Ow! You're tugging me too hard!                                                           
##  7     6 We gotta go, gotta get outta here, come on. Got a surprise for you .                          
##  8     7 What do you think of this... flying vehicle, ? I built it outta stuff I found in the garage.  
##  9     8 Yeah, ... I-it's great. Is this the surprise?                                                 
## 10     9 . I had to... I had to do it. I had— I had to— I had to make a bomb, . I had to create a bomb.
## # … with 1,895 more rows
```
…
.panel1-sw6-auto[

```r
  rickmorty_selected %>%
  mutate(line = str_remove_all(line, "Rick")) %>%
  mutate(line = str_remove_all(line, "Morty")) %>%
* mutate(line = replace_contraction(line))
```
]
 
.panel2-sw6-auto[

```
## # A tibble: 1,905 × 2
##    index line                                                                                          
##    <dbl> <chr>                                                                                         
##  1     0 ! You gotta come on. Jus'... you gotta come with me.                                          
##  2     1 What, ? What’s going on?                                                                      
##  3     2 I got a surprise for you, .                                                                   
##  4     3 it is the middle of the night. What are you talking about?                                    
##  5     4 Come on, I got a surprise for you.  Come on, hurry up.                                        
##  6     5 Ow! Ow! you are tugging me too hard!                                                          
##  7     6 We gotta go, gotta get outta here, come on. Got a surprise for you .                          
##  8     7 What do you think of this... flying vehicle, ? I built it outta stuff I found in the garage.  
##  9     8 Yeah, ... I-it is great. Is this the surprise?                                                
## 10     9 . I had to... I had to do it. I had— I had to— I had to make a bomb, . I had to create a bomb.
## # … with 1,895 more rows
```
…
.panel1-sw6-auto[

```r
  rickmorty_selected %>%
  mutate(line = str_remove_all(line, "Rick")) %>%
  mutate(line = str_remove_all(line, "Morty")) %>%
  mutate(line = replace_contraction(line)) %>%
* unnest_tokens(word, line)
```
]
 
.panel2-sw6-auto[

```
## # A tibble: 26,070 × 2
##    index word 
##    <dbl> <chr>
##  1     0 you  
##  2     0 gotta
##  3     0 come 
##  4     0 on   
##  5     0 jus  
##  6     0 you  
##  7     0 gotta
##  8     0 come 
##  9     0 with 
## 10     0 me   
## # … with 26,060 more rows
```
…
.panel2-sw6-auto[

```
## Joining, by = "word"
```

```
## # A tibble: 7,950 × 2
##    index word    
##    <dbl> <chr>   
##  1     0 gotta   
##  2     0 jus     
##  3     0 gotta   
##  4     1 what’s  
##  5     2 surprise
##  6     3 middle  
##  7     3 night   
##  8     3 talking 
##  9     4 surprise
## 10     4 hurry   
## # … with 7,940 more rows
```
…
.panel2-sw6-auto[

```
## Joining, by = "word"
```

```
## # A tibble: 3,056 × 2
##    word       n
##    <chr>  <int>
##  1 gonna    113
##  2 time      89
##  3 yeah      78
##  4 uh        53
##  5 whoa      53
##  6 jerry     50
##  7 god       48
##  8 guys      48
##  9 summer    45
## 10 hey       44
## # … with 3,046 more rows
```
…
---

count: false

.panel1-sw7-auto[

```r
*rickandmorty_filtered
```
]
 
.panel2-sw7-auto[

```
## # A tibble: 122 × 2
##    word       n
##    <chr>  <int>
##  1 gonna    113
##  2 time      89
##  3 yeah      78
##  4 uh        53
##  5 whoa      53
##  6 jerry     50
##  7 god       48
##  8 guys      48
##  9 summer    45
## 10 hey       44
## # … with 112 more rows
```
…
---
count: false

.panel1-sw7-auto[

```r
rickandmorty_filtered %>%
* filter(n > 20)
```
]
 
.panel2-sw7-auto[

```
## # A tibble: 35 × 2
##    word       n
##    <chr>  <int>
##  1 gonna    113
##  2 time      89
##  3 yeah      78
##  4 uh        53
##  5 whoa      53
##  6 jerry     50
##  7 god       48
##  8 guys      48
##  9 summer    45
## 10 hey       44
## # … with 25 more rows
```
…
.panel1-sw7-auto[

```r
rickandmorty_filtered %>%
  filter(n > 20) %>%
* mutate(word = reorder(word, n))
```
]
 
.panel2-sw7-auto[

```
## # A tibble: 35 × 2
##    word       n
##    <fct>  <int>
##  1 gonna    113
##  2 time      89
##  3 yeah      78
##  4 uh        53
##  5 whoa      53
##  6 jerry     50
##  7 god       48
##  8 guys      48
##  9 summer    45
## 10 hey       44
## # … with 25 more rows
```
…
---

count: false

.panel1-sw8-auto[

```r
*rickandmorty_filtered
```
]
 
.panel2-sw8-auto[

```
## # A tibble: 122 × 2
##    word       n
##    <chr>  <int>
##  1 gonna    113
##  2 time      89
##  3 yeah      78
##  4 uh        53
##  5 whoa      53
##  6 jerry     50
##  7 god       48
##  8 guys      48
##  9 summer    45
## 10 hey       44
## # … with 112 more rows
```
…
---
count: false

.panel1-sw8-auto[

```r
rickandmorty_filtered %>%
* rowid_to_column(var = "index")
```
]
 
.panel2-sw8-auto[

```
## # A tibble: 122 × 3
##    index word       n
##    <int> <chr>  <int>
##  1     1 gonna    113
##  2     2 time      89
##  3     3 yeah      78
##  4     4 uh        53
##  5     5 whoa      53
##  6     6 jerry     50
##  7     7 god       48
##  8     8 guys      48
##  9     9 summer    45
## 10    10 hey       44
## # … with 112 more rows
```
…
```r
rickandmorty_filtered %>%
  rowid_to_column(var = "index") %>%
* inner_join(get_sentiments("bing"))
```
]
 
.panel2-sw8-auto[

```
## Joining, by = "word"
```

```
## # A tibble: 22 × 4
##    index word       n sentiment
##    <int> <chr>  <int> <chr>    
##  1     5 whoa      53 positive 
##  2    11 love      37 positive 
##  3    17 shit      30 negative 
##  4    20 hell      26 negative 
##  5    22 bad       24 negative 
##  6    30 die       22 negative 
##  7    31 fuck      22 negative 
##  8    43 crap      18 negative 
##  9    45 pretty    18 positive 
## 10    49 bitch     16 negative 
## # … with 12 more rows
```
…
.panel2-sw8-auto[

```
## Joining, by = "word"
```

```
## # A tibble: 22 × 4
##    index word   positive negative
##    <int> <chr>     <int>    <int>
##  1     5 whoa         53        0
##  2    11 love         37        0
##  3    17 shit          0       30
##  4    20 hell          0       26
##  5    22 bad           0       24
##  6    30 die           0       22
##  7    31 fuck          0       22
##  8    43 crap          0       18
##  9    45 pretty       18        0
## 10    49 bitch         0       16
## # … with 12 more rows
```
…
