The Normal Curve
…
### 1. What is the average number of positive reviews for the top five movies?

count: false

.panel1-sw1-auto[

```r
*boxoffice
```
]
 
.panel2-sw1-auto[

```
# A tibble: 718 × 10
    Rank AllPos AllNeg TopPos TopNeg Movie         Relea…¹ Relea…² Reven…³  year
   <dbl>  <dbl>  <dbl>  <dbl>  <dbl> <chr>         <chr>   <chr>     <dbl> <dbl>
 1     1    238     48     38      3 Avatar (Fox)  12/18/… Dec      7.61e8  2009
 2     2    145     21     36      8 Titanic (Par… 12/19/… Dec      6.59e8  1997
 3     3    268     22     38      7 Marvel's The… 5/4/12  May      6.23e8  2012
 4     4    268     18     42      4 The Dark Kni… 7/18/08 Jul      5.35e8  2008
 5     5    107     81     19     31 Star Wars: E… 5/19/99 May      4.75e8  1999
 6     6     63      4     15      2 Star Wars (F… 5/25/77 May      4.61e8  1977
 7     7    256     39     34     11 The Dark Kni… 7/20/12 Jul      4.48e8  2012
 8     8    185     23     36      5 Shrek 2 (Dre… 5/19/04 May      4.41e8  2004
 9     9     92      2     17      1 E.T.: The Ex… 6/11/82 Jun      4.35e8  1982
10    10    119    101     16     25 Pirates of t… 7/7/06  Jul      4.23e8  2006
# … with 708 more rows, and abbreviated variable names ¹​ReleaseDate,
#   ²​ReleaseMonth, ³​Revenues
```
…
---
count: false

.panel1-sw1-auto[

```r
boxoffice %>%
* arrange(Rank)
```
]
 
.panel2-sw1-auto[

```
# A tibble: 718 × 10
    Rank AllPos AllNeg TopPos TopNeg Movie         Relea…¹ Relea…² Reven…³  year
   <dbl>  <dbl>  <dbl>  <dbl>  <dbl> <chr>         <chr>   <chr>     <dbl> <dbl>
 1     1    238     48     38      3 Avatar (Fox)  12/18/… Dec      7.61e8  2009
 2     2    145     21     36      8 Titanic (Par… 12/19/… Dec      6.59e8  1997
 3     3    268     22     38      7 Marvel's The… 5/4/12  May      6.23e8  2012
 4     4    268     18     42      4 The Dark Kni… 7/18/08 Jul      5.35e8  2008
 5     5    107     81     19     31 Star Wars: E… 5/19/99 May      4.75e8  1999
 6     6     63      4     15      2 Star Wars (F… 5/25/77 May      4.61e8  1977
 7     7    256     39     34     11 The Dark Kni… 7/20/12 Jul      4.48e8  2012
 8     8    185     23     36      5 Shrek 2 (Dre… 5/19/04 May      4.41e8  2004
 9     9     92      2     17      1 E.T.: The Ex… 6/11/82 Jun      4.35e8  1982
10    10    119    101     16     25 Pirates of t… 7/7/06  Jul      4.23e8  2006
# … with 708 more rows, and abbreviated variable names ¹​ReleaseDate,
#   ²​ReleaseMonth, ³​Revenues
```
…
### 2. What are the average number of negative reviews for the bottom five movies?

count: false

.panel1-sw2-auto[

```r
*boxoffice
```
]
 
.panel2-sw2-auto[

```
# A tibble: 718 × 10
    Rank AllPos AllNeg TopPos TopNeg Movie         Relea…¹ Relea…² Reven…³  year
   <dbl>  <dbl>  <dbl>  <dbl>  <dbl> <chr>         <chr>   <chr>     <dbl> <dbl>
 1     1    238     48     38      3 Avatar (Fox)  12/18/… Dec      7.61e8  2009
 2     2    145     21     36      8 Titanic (Par… 12/19/… Dec      6.59e8  1997
 3     3    268     22     38      7 Marvel's The… 5/4/12  May      6.23e8  2012
 4     4    268     18     42      4 The Dark Kni… 7/18/08 Jul      5.35e8  2008
 5     5    107     81     19     31 Star Wars: E… 5/19/99 May      4.75e8  1999
 6     6     63      4     15      2 Star Wars (F… 5/25/77 May      4.61e8  1977
 7     7    256     39     34     11 The Dark Kni… 7/20/12 Jul      4.48e8  2012
 8     8    185     23     36      5 Shrek 2 (Dre… 5/19/04 May      4.41e8  2004
 9     9     92      2     17      1 E.T.: The Ex… 6/11/82 Jun      4.35e8  1982
10    10    119    101     16     25 Pirates of t… 7/7/06  Jul      4.23e8  2006
# … with 708 more rows, and abbreviated variable names ¹​ReleaseDate,
#   ²​ReleaseMonth, ³​Revenues
```
…
---
count: false

.panel1-sw2-auto[

```r
boxoffice %>%
* arrange(Rank)
```
]
 
.panel2-sw2-auto[

```
# A tibble: 718 × 10
    Rank AllPos AllNeg TopPos TopNeg Movie         Relea…¹ Relea…² Reven…³  year
   <dbl>  <dbl>  <dbl>  <dbl>  <dbl> <chr>         <chr>   <chr>     <dbl> <dbl>
 1     1    238     48     38      3 Avatar (Fox)  12/18/… Dec      7.61e8  2009
 2     2    145     21     36      8 Titanic (Par… 12/19/… Dec      6.59e8  1997
 3     3    268     22     38      7 Marvel's The… 5/4/12  May      6.23e8  2012
 4     4    268     18     42      4 The Dark Kni… 7/18/08 Jul      5.35e8  2008
 5     5    107     81     19     31 Star Wars: E… 5/19/99 May      4.75e8  1999
 6     6     63      4     15      2 Star Wars (F… 5/25/77 May      4.61e8  1977
 7     7    256     39     34     11 The Dark Kni… 7/20/12 Jul      4.48e8  2012
 8     8    185     23     36      5 Shrek 2 (Dre… 5/19/04 May      4.41e8  2004
 9     9     92      2     17      1 E.T.: The Ex… 6/11/82 Jun      4.35e8  1982
10    10    119    101     16     25 Pirates of t… 7/7/06  Jul      4.23e8  2006
# … with 708 more rows, and abbreviated variable names ¹​ReleaseDate,
#   ²​ReleaseMonth, ³​Revenues
```
…
### 3. How were movies released over the years? Provide counts and a visualization.

count: false

.panel1-sw3-auto[

```r
*boxoffice
```
]
 
.panel2-sw3-auto[

```
# A tibble: 718 × 10
    Rank AllPos AllNeg TopPos TopNeg Movie         Relea…¹ Relea…² Reven…³  year
   <dbl>  <dbl>  <dbl>  <dbl>  <dbl> <chr>         <chr>   <chr>     <dbl> <dbl>
 1     1    238     48     38      3 Avatar (Fox)  12/18/… Dec      7.61e8  2009
 2     2    145     21     36      8 Titanic (Par… 12/19/… Dec      6.59e8  1997
 3     3    268     22     38      7 Marvel's The… 5/4/12  May      6.23e8  2012
 4     4    268     18     42      4 The Dark Kni… 7/18/08 Jul      5.35e8  2008
 5     5    107     81     19     31 Star Wars: E… 5/19/99 May      4.75e8  1999
 6     6     63      4     15      2 Star Wars (F… 5/25/77 May      4.61e8  1977
 7     7    256     39     34     11 The Dark Kni… 7/20/12 Jul      4.48e8  2012
 8     8    185     23     36      5 Shrek 2 (Dre… 5/19/04 May      4.41e8  2004
 9     9     92      2     17      1 E.T.: The Ex… 6/11/82 Jun      4.35e8  1982
10    10    119    101     16     25 Pirates of t… 7/7/06  Jul      4.23e8  2006
# … with 708 more rows, and abbreviated variable names ¹​ReleaseDate,
#   ²​ReleaseMonth, ³​Revenues
```
…
---
count: false

.panel1-sw3-auto[

```r
boxoffice %>%
* group_by(year)
```
]
 
.panel2-sw3-auto[

```
# A tibble: 718 × 10
# Groups:   year [55]
    Rank AllPos AllNeg TopPos TopNeg Movie         Relea…¹ Relea…² Reven…³  year
   <dbl>  <dbl>  <dbl>  <dbl>  <dbl> <chr>         <chr>   <chr>     <dbl> <dbl>
 1     1    238     48     38      3 Avatar (Fox)  12/18/… Dec      7.61e8  2009
 2     2    145     21     36      8 Titanic (Par… 12/19/… Dec      6.59e8  1997
 3     3    268     22     38      7 Marvel's The… 5/4/12  May      6.23e8  2012
 4     4    268     18     42      4 The Dark Kni… 7/18/08 Jul      5.35e8  2008
 5     5    107     81     19     31 Star Wars: E… 5/19/99 May      4.75e8  1999
 6     6     63      4     15      2 Star Wars (F… 5/25/77 May      4.61e8  1977
 7     7    256     39     34     11 The Dark Kni… 7/20/12 Jul      4.48e8  2012
 8     8    185     23     36      5 Shrek 2 (Dre… 5/19/04 May      4.41e8  2004
 9     9     92      2     17      1 E.T.: The Ex… 6/11/82 Jun      4.35e8  1982
10    10    119    101     16     25 Pirates of t… 7/7/06  Jul      4.23e8  2006
# … with 708 more rows, and abbreviated variable names ¹​ReleaseDate,
#   ²​ReleaseMonth, ³​Revenues
```
…
.panel1-sw3-auto[

```r
boxoffice %>%
  group_by(year) %>%
* count(name = "number of movies")
```
]
 
.panel2-sw3-auto[

```
# A tibble: 55 × 2
# Groups:   year [55]
    year `number of movies`
   <dbl>              <int>
 1  1937                  1
 2  1939                  1
 3  1940                  2
 4  1942                  1
 5  1950                  1
 6  1953                  1
 7  1955                  1
 8  1956                  1
 9  1961                  1
10  1964                  1
# … with 45 more rows
```
…
.panel1-sw3-auto[

```r
boxoffice %>%
  group_by(year) %>%
  count(name = "number of movies") %>%
* ungroup()
```
]
 
.panel2-sw3-auto[

```
# A tibble: 55 × 2
    year `number of movies`
   <dbl>              <int>
 1  1937                  1
 2  1939                  1
 3  1940                  2
 4  1942                  1
 5  1950                  1
 6  1953                  1
 7  1955                  1
 8  1956                  1
 9  1961                  1
10  1964                  1
# … with 45 more rows
```
…
- Median

count: false

.panel1-sw4a-auto[

```r
*boxoffice_annualnum
```
]
 
.panel2-sw4a-auto[

```
# A tibble: 55 × 2
    year `number of movies`
   <dbl>              <int>
 1  1937                  1
 2  1939                  1
 3  1940                  2
 4  1942                  1
 5  1950                  1
 6  1953                  1
 7  1955                  1
 8  1956                  1
 9  1961                  1
10  1964                  1
# … with 45 more rows
```
…
- Mean

count: false

.panel1-sw4b-auto[

```r
*boxoffice_annualnum
```
]
 
.panel2-sw4b-auto[

```
# A tibble: 55 × 2
    year `number of movies`
   <dbl>              <int>
 1  1937                  1
 2  1939                  1
 3  1940                  2
 4  1942                  1
 5  1950                  1
 6  1953                  1
 7  1955                  1
 8  1956                  1
 9  1961                  1
10  1964                  1
# … with 45 more rows
```
…
### 5. Which year has the most number of ranked movies? 

count: false

.panel1-sw5a-auto[

```r
*boxoffice
```
]
 
.panel2-sw5a-auto[

```
# A tibble: 718 × 10
    Rank AllPos AllNeg TopPos TopNeg Movie         Relea…¹ Relea…² Reven…³  year
   <dbl>  <dbl>  <dbl>  <dbl>  <dbl> <chr>         <chr>   <chr>     <dbl> <dbl>
 1     1    238     48     38      3 Avatar (Fox)  12/18/… Dec      7.61e8  2009
 2     2    145     21     36      8 Titanic (Par… 12/19/… Dec      6.59e8  1997
 3     3    268     22     38      7 Marvel's The… 5/4/12  May      6.23e8  2012
 4     4    268     18     42      4 The Dark Kni… 7/18/08 Jul      5.35e8  2008
 5     5    107     81     19     31 Star Wars: E… 5/19/99 May      4.75e8  1999
 6     6     63      4     15      2 Star Wars (F… 5/25/77 May      4.61e8  1977
 7     7    256     39     34     11 The Dark Kni… 7/20/12 Jul      4.48e8  2012
 8     8    185     23     36      5 Shrek 2 (Dre… 5/19/04 May      4.41e8  2004
 9     9     92      2     17      1 E.T.: The Ex… 6/11/82 Jun      4.35e8  1982
10    10    119    101     16     25 Pirates of t… 7/7/06  Jul      4.23e8  2006
# … with 708 more rows, and abbreviated variable names ¹​ReleaseDate,
#   ²​ReleaseMonth, ³​Revenues
```
…
---
count: false

.panel1-sw5a-auto[

```r
boxoffice %>%
* group_by(year)
```
]
 
.panel2-sw5a-auto[

```
# A tibble: 718 × 10
# Groups:   year [55]
    Rank AllPos AllNeg TopPos TopNeg Movie         Relea…¹ Relea…² Reven…³  year
   <dbl>  <dbl>  <dbl>  <dbl>  <dbl> <chr>         <chr>   <chr>     <dbl> <dbl>
 1     1    238     48     38      3 Avatar (Fox)  12/18/… Dec      7.61e8  2009
 2     2    145     21     36      8 Titanic (Par… 12/19/… Dec      6.59e8  1997
 3     3    268     22     38      7 Marvel's The… 5/4/12  May      6.23e8  2012
 4     4    268     18     42      4 The Dark Kni… 7/18/08 Jul      5.35e8  2008
 5     5    107     81     19     31 Star Wars: E… 5/19/99 May      4.75e8  1999
 6     6     63      4     15      2 Star Wars (F… 5/25/77 May      4.61e8  1977
 7     7    256     39     34     11 The Dark Kni… 7/20/12 Jul      4.48e8  2012
 8     8    185     23     36      5 Shrek 2 (Dre… 5/19/04 May      4.41e8  2004
 9     9     92      2     17      1 E.T.: The Ex… 6/11/82 Jun      4.35e8  1982
10    10    119    101     16     25 Pirates of t… 7/7/06  Jul      4.23e8  2006
# … with 708 more rows, and abbreviated variable names ¹​ReleaseDate,
#   ²​ReleaseMonth, ³​Revenues
```
…
.panel1-sw5a-auto[

```r
boxoffice %>%
  group_by(year) %>%
* tally()
```
]
 
.panel2-sw5a-auto[

```
# A tibble: 55 × 2
    year     n
   <dbl> <int>
 1  1937     1
 2  1939     1
 3  1940     2
 4  1942     1
 5  1950     1
 6  1953     1
 7  1955     1
 8  1956     1
 9  1961     1
10  1964     1
# … with 45 more rows
```
…
.panel1-sw5a-auto[

```r
boxoffice %>%
  group_by(year) %>%
  tally() %>%
* rename(`number of movies` = n)
```
]
 
.panel2-sw5a-auto[

```
# A tibble: 55 × 2
    year `number of movies`
   <dbl>              <int>
 1  1937                  1
 2  1939                  1
 3  1940                  2
 4  1942                  1
 5  1950                  1
 6  1953                  1
 7  1955                  1
 8  1956                  1
 9  1961                  1
10  1964                  1
# … with 45 more rows
```
…
.panel1-sw5a-auto[

```r
boxoffice %>%
  group_by(year) %>%
  tally() %>%
  rename(`number of movies` = n) %>%
* ungroup()
```
]
 
.panel2-sw5a-auto[

```
# A tibble: 55 × 2
    year `number of movies`
   <dbl>              <int>
 1  1937                  1
 2  1939                  1
 3  1940                  2
 4  1942                  1
 5  1950                  1
 6  1953                  1
 7  1955                  1
 8  1956                  1
 9  1961                  1
10  1964                  1
# … with 45 more rows
```
…
*or*

count: false

.panel1-sw5b-auto[

```r
*boxoffice
```
]
 
.panel2-sw5b-auto[

```
# A tibble: 718 × 10
    Rank AllPos AllNeg TopPos TopNeg Movie         Relea…¹ Relea…² Reven…³  year
   <dbl>  <dbl>  <dbl>  <dbl>  <dbl> <chr>         <chr>   <chr>     <dbl> <dbl>
 1     1    238     48     38      3 Avatar (Fox)  12/18/… Dec      7.61e8  2009
 2     2    145     21     36      8 Titanic (Par… 12/19/… Dec      6.59e8  1997
 3     3    268     22     38      7 Marvel's The… 5/4/12  May      6.23e8  2012
 4     4    268     18     42      4 The Dark Kni… 7/18/08 Jul      5.35e8  2008
 5     5    107     81     19     31 Star Wars: E… 5/19/99 May      4.75e8  1999
 6     6     63      4     15      2 Star Wars (F… 5/25/77 May      4.61e8  1977
 7     7    256     39     34     11 The Dark Kni… 7/20/12 Jul      4.48e8  2012
 8     8    185     23     36      5 Shrek 2 (Dre… 5/19/04 May      4.41e8  2004
 9     9     92      2     17      1 E.T.: The Ex… 6/11/82 Jun      4.35e8  1982
10    10    119    101     16     25 Pirates of t… 7/7/06  Jul      4.23e8  2006
# … with 708 more rows, and abbreviated variable names ¹​ReleaseDate,
#   ²​ReleaseMonth, ³​Revenues
```
…
---
count: false

.panel1-sw5b-auto[

```r
boxoffice %>%
* group_by(year)
```
]
 
.panel2-sw5b-auto[

```
# A tibble: 718 × 10
# Groups:   year [55]
    Rank AllPos AllNeg TopPos TopNeg Movie         Relea…¹ Relea…² Reven…³  year
   <dbl>  <dbl>  <dbl>  <dbl>  <dbl> <chr>         <chr>   <chr>     <dbl> <dbl>
 1     1    238     48     38      3 Avatar (Fox)  12/18/… Dec      7.61e8  2009
 2     2    145     21     36      8 Titanic (Par… 12/19/… Dec      6.59e8  1997
 3     3    268     22     38      7 Marvel's The… 5/4/12  May      6.23e8  2012
 4     4    268     18     42      4 The Dark Kni… 7/18/08 Jul      5.35e8  2008
 5     5    107     81     19     31 Star Wars: E… 5/19/99 May      4.75e8  1999
 6     6     63      4     15      2 Star Wars (F… 5/25/77 May      4.61e8  1977
 7     7    256     39     34     11 The Dark Kni… 7/20/12 Jul      4.48e8  2012
 8     8    185     23     36      5 Shrek 2 (Dre… 5/19/04 May      4.41e8  2004
 9     9     92      2     17      1 E.T.: The Ex… 6/11/82 Jun      4.35e8  1982
10    10    119    101     16     25 Pirates of t… 7/7/06  Jul      4.23e8  2006
# … with 708 more rows, and abbreviated variable names ¹​ReleaseDate,
#   ²​ReleaseMonth, ³​Revenues
```
…
.panel1-sw5b-auto[

```r
boxoffice %>%
  group_by(year) %>%
* summarise(`number of movies` = n())
```
]
 
.panel2-sw5b-auto[

```
# A tibble: 55 × 2
    year `number of movies`
   <dbl>              <int>
 1  1937                  1
 2  1939                  1
 3  1940                  2
 4  1942                  1
 5  1950                  1
 6  1953                  1
 7  1955                  1
 8  1956                  1
 9  1961                  1
10  1964                  1
# … with 45 more rows
```
…
.panel1-sw5b-auto[

```r
boxoffice %>%
  group_by(year) %>%
  summarise(`number of movies` = n()) %>%
* ungroup()
```
]
 
.panel2-sw5b-auto[

```
# A tibble: 55 × 2
    year `number of movies`
   <dbl>              <int>
 1  1937                  1
 2  1939                  1
 3  1940                  2
 4  1942                  1
 5  1950                  1
 6  1953                  1
 7  1955                  1
 8  1956                  1
 9  1961                  1
10  1964                  1
# … with 45 more rows
```
…
*or*

count: false

.panel1-sw5c-auto[

```r
*boxoffice
```
]
 
.panel2-sw5c-auto[

```
# A tibble: 718 × 10
    Rank AllPos AllNeg TopPos TopNeg Movie         Relea…¹ Relea…² Reven…³  year
   <dbl>  <dbl>  <dbl>  <dbl>  <dbl> <chr>         <chr>   <chr>     <dbl> <dbl>
 1     1    238     48     38      3 Avatar (Fox)  12/18/… Dec      7.61e8  2009
 2     2    145     21     36      8 Titanic (Par… 12/19/… Dec      6.59e8  1997
 3     3    268     22     38      7 Marvel's The… 5/4/12  May      6.23e8  2012
 4     4    268     18     42      4 The Dark Kni… 7/18/08 Jul      5.35e8  2008
 5     5    107     81     19     31 Star Wars: E… 5/19/99 May      4.75e8  1999
 6     6     63      4     15      2 Star Wars (F… 5/25/77 May      4.61e8  1977
 7     7    256     39     34     11 The Dark Kni… 7/20/12 Jul      4.48e8  2012
 8     8    185     23     36      5 Shrek 2 (Dre… 5/19/04 May      4.41e8  2004
 9     9     92      2     17      1 E.T.: The Ex… 6/11/82 Jun      4.35e8  1982
10    10    119    101     16     25 Pirates of t… 7/7/06  Jul      4.23e8  2006
# … with 708 more rows, and abbreviated variable names ¹​ReleaseDate,
#   ²​ReleaseMonth, ³​Revenues
```
…
---
count: false

.panel1-sw5c-auto[

```r
boxoffice %>%
* group_by(year)
```
]
 
.panel2-sw5c-auto[

```
# A tibble: 718 × 10
# Groups:   year [55]
    Rank AllPos AllNeg TopPos TopNeg Movie         Relea…¹ Relea…² Reven…³  year
   <dbl>  <dbl>  <dbl>  <dbl>  <dbl> <chr>         <chr>   <chr>     <dbl> <dbl>
 1     1    238     48     38      3 Avatar (Fox)  12/18/… Dec      7.61e8  2009
 2     2    145     21     36      8 Titanic (Par… 12/19/… Dec      6.59e8  1997
 3     3    268     22     38      7 Marvel's The… 5/4/12  May      6.23e8  2012
 4     4    268     18     42      4 The Dark Kni… 7/18/08 Jul      5.35e8  2008
 5     5    107     81     19     31 Star Wars: E… 5/19/99 May      4.75e8  1999
 6     6     63      4     15      2 Star Wars (F… 5/25/77 May      4.61e8  1977
 7     7    256     39     34     11 The Dark Kni… 7/20/12 Jul      4.48e8  2012
 8     8    185     23     36      5 Shrek 2 (Dre… 5/19/04 May      4.41e8  2004
 9     9     92      2     17      1 E.T.: The Ex… 6/11/82 Jun      4.35e8  1982
10    10    119    101     16     25 Pirates of t… 7/7/06  Jul      4.23e8  2006
# … with 708 more rows, and abbreviated variable names ¹​ReleaseDate,
#   ²​ReleaseMonth, ³​Revenues
```
…
