I'm the Map | Data Visualization
…
Assume I want to look at the 2018 American Community Survey: 5-Year Estimates which is described as an ongoing survey that provides data every year – giving communities the current information they need to plan investments and services. The ACS covers a broad range of topics about social, economic, demographic, and housing characteristics of the U.S. population. The Comparison Profiles include the following geographies: nation, all states (including DC and Puerto Rico), all metropolitan areas, all congressional districts, all counties, all places and all tracts. Comparison Profiles contain broad social, economic, housing, and demographic information. The data are presented as both counts and percentages.

There are over 2,400 variables in this dataset! You can find out more from the Census ACS API page.

Selecting The Proper Census Data Sets

We need to check for geographic data in the ACS because not everything in the Census API has geographical information

listCensusMetadata(name = "acs/acs5/profile", 
                   vintage = 2018,
                   type = "geography") %>%
  as_tibble() %>%
  unnest(cols = c()) 

## # A tibble: 53 x 6
##    name        geoLevelDisplay referenceDate requires  wildcard optionalWithWCF…
##    <chr>       <chr>           <chr>         <list>    <list>   <chr>           
##  1 us          010             2018-01-01    <NULL>    <NULL>   <NA>            
##  2 region      020             2018-01-01    <NULL>    <NULL>   <NA>            
##  3 division    030             2018-01-01    <NULL>    <NULL>   <NA>            
##  4 state       040             2018-01-01    <NULL>    <NULL>   <NA>            
##  5 county      050             2018-01-01    <chr [1]> <chr [1… state           
##  6 county sub… 060             2018-01-01    <chr [2]> <chr [1… county          
##  7 subminor c… 067             2018-01-01    <chr [3]> <NULL>   <NA>            
##  8 tract       140             2018-01-01    <chr [2]> <chr [1… county          
##  9 place       160             2018-01-01    <chr [1]> <chr [1… state           
## 10 consolidat… 170             2018-01-01    <chr [1]> <chr [1… state           
## # … with 43 more rows
…
