Exploring NFL Ticket Prices in R
…
```r
prices <- 
  read_csv("2014-average-ticket-price.csv")
```
---

# Take a look at the entire frame...

```r
prices
```

```
## # A tibble: 99 × 3
##    Event                                                      Division AverageTP
##    <chr>                                                      <chr>        <dbl>
##  1 Baltimore Ravens at Pittsburgh Steelers Tickets on 02-Nov… AFC Nor…       202
##  2 Pittsburgh Steelers at Baltimore Ravens Tickets on 11-Sep… AFC Nor…       199
##  3 Cleveland Browns at Pittsburgh Steelers Tickets on 07-Sep… AFC Nor…       196
##  4 Cincinnati Bengals at Pittsburgh Steelers Tickets on 28-D… AFC Nor…       164
##  5 Pittsburgh Steelers at Cleveland Browns Tickets on 12-Oct… AFC Nor…       148
##  6 Cleveland Browns at Baltimore Ravens Tickets on 28-Dec-20… AFC Nor…       137
##  7 Cincinnati Bengals at Baltimore Ravens Tickets on 07-Sep-… AFC Nor…       135
##  8 Cleveland Browns at Cincinnati Bengals Tickets on 06-Nov-… AFC Nor…       102
##  9 Pittsburgh Steelers at Cincinnati Bengals Tickets on 07-D… AFC Nor…        89
## 10 Baltimore Ravens at Cleveland Browns Tickets on 21-Sep-20… AFC Nor…        83
## # … with 89 more rows
```
…
