Distributions and Central Tendency
…
--

count: false

.panel1-sw1-auto[

```r
*starwars
```
]
 
.panel2-sw1-auto[

```
# A tibble: 87 × 14
   name    height  mass hair_color  skin_color eye_color birth_year sex   gender
   <chr>    <int> <dbl> <chr>       <chr>      <chr>          <dbl> <chr> <chr> 
 1 Luke S…    172    77 blond       fair       blue            19   male  mascu…
 2 C-3PO      167    75 <NA>        gold       yellow         112   none  mascu…
 3 R2-D2       96    32 <NA>        white, bl… red             33   none  mascu…
 4 Darth …    202   136 none        white      yellow          41.9 male  mascu…
 5 Leia O…    150    49 brown       light      brown           19   fema… femin…
 6 Owen L…    178   120 brown, grey light      blue            52   male  mascu…
 7 Beru W…    165    75 brown       light      blue            47   fema… femin…
 8 R5-D4       97    32 <NA>        white, red red             NA   none  mascu…
 9 Biggs …    183    84 black       light      brown           24   male  mascu…
10 Obi-Wa…    182    77 auburn, wh… fair       blue-gray       57   male  mascu…
# … with 77 more rows, and 5 more variables: homeworld <chr>, species <chr>,
#   films <list>, vehicles <list>, starships <list>
```
…
---
count: false

.panel1-sw1-auto[

```r
starwars %>%
* select(name, species, homeworld)
```
]
 
.panel2-sw1-auto[

```
# A tibble: 87 × 3
   name               species homeworld
   <chr>              <chr>   <chr>    
 1 Luke Skywalker     Human   Tatooine 
 2 C-3PO              Droid   Tatooine 
 3 R2-D2              Droid   Naboo    
 4 Darth Vader        Human   Tatooine 
 5 Leia Organa        Human   Alderaan 
 6 Owen Lars          Human   Tatooine 
 7 Beru Whitesun lars Human   Tatooine 
 8 R5-D4              Droid   Tatooine 
 9 Biggs Darklighter  Human   Tatooine 
10 Obi-Wan Kenobi     Human   Stewjon  
# … with 77 more rows
```
…
## Single variable counts

count: false

.panel1-sw2-auto[

```r
*starwars
```
]
 
.panel2-sw2-auto[

```
# A tibble: 87 × 14
   name    height  mass hair_color  skin_color eye_color birth_year sex   gender
   <chr>    <int> <dbl> <chr>       <chr>      <chr>          <dbl> <chr> <chr> 
 1 Luke S…    172    77 blond       fair       blue            19   male  mascu…
 2 C-3PO      167    75 <NA>        gold       yellow         112   none  mascu…
 3 R2-D2       96    32 <NA>        white, bl… red             33   none  mascu…
 4 Darth …    202   136 none        white      yellow          41.9 male  mascu…
 5 Leia O…    150    49 brown       light      brown           19   fema… femin…
 6 Owen L…    178   120 brown, grey light      blue            52   male  mascu…
 7 Beru W…    165    75 brown       light      blue            47   fema… femin…
 8 R5-D4       97    32 <NA>        white, red red             NA   none  mascu…
 9 Biggs …    183    84 black       light      brown           24   male  mascu…
10 Obi-Wa…    182    77 auburn, wh… fair       blue-gray       57   male  mascu…
# … with 77 more rows, and 5 more variables: homeworld <chr>, species <chr>,
#   films <list>, vehicles <list>, starships <list>
```
…
---
count: false

.panel1-sw2-auto[

```r
starwars %>%
* select(name, species, homeworld)
```
]
 
.panel2-sw2-auto[

```
# A tibble: 87 × 3
   name               species homeworld
   <chr>              <chr>   <chr>    
 1 Luke Skywalker     Human   Tatooine 
 2 C-3PO              Droid   Tatooine 
 3 R2-D2              Droid   Naboo    
 4 Darth Vader        Human   Tatooine 
 5 Leia Organa        Human   Alderaan 
 6 Owen Lars          Human   Tatooine 
 7 Beru Whitesun lars Human   Tatooine 
 8 R5-D4              Droid   Tatooine 
 9 Biggs Darklighter  Human   Tatooine 
10 Obi-Wan Kenobi     Human   Stewjon  
# … with 77 more rows
```
…
.panel1-sw2-auto[

```r
starwars %>%
  select(name, species, homeworld) %>%
* count(species)
```
]
 
.panel2-sw2-auto[

```
# A tibble: 38 × 2
   species       n
   <chr>     <int>
 1 Aleena        1
 2 Besalisk      1
 3 Cerean        1
 4 Chagrian      1
 5 Clawdite      1
 6 Droid         6
 7 Dug           1
 8 Ewok          1
 9 Geonosian     1
10 Gungan        3
# … with 28 more rows
```
…
## Multiple variable counts

count: false

.panel1-sw3-auto[

```r
*starwars
```
]
 
.panel2-sw3-auto[

```
# A tibble: 87 × 14
   name    height  mass hair_color  skin_color eye_color birth_year sex   gender
   <chr>    <int> <dbl> <chr>       <chr>      <chr>          <dbl> <chr> <chr> 
 1 Luke S…    172    77 blond       fair       blue            19   male  mascu…
 2 C-3PO      167    75 <NA>        gold       yellow         112   none  mascu…
 3 R2-D2       96    32 <NA>        white, bl… red             33   none  mascu…
 4 Darth …    202   136 none        white      yellow          41.9 male  mascu…
 5 Leia O…    150    49 brown       light      brown           19   fema… femin…
 6 Owen L…    178   120 brown, grey light      blue            52   male  mascu…
 7 Beru W…    165    75 brown       light      blue            47   fema… femin…
 8 R5-D4       97    32 <NA>        white, red red             NA   none  mascu…
 9 Biggs …    183    84 black       light      brown           24   male  mascu…
10 Obi-Wa…    182    77 auburn, wh… fair       blue-gray       57   male  mascu…
# … with 77 more rows, and 5 more variables: homeworld <chr>, species <chr>,
#   films <list>, vehicles <list>, starships <list>
```
…
---
count: false

.panel1-sw3-auto[

```r
starwars %>%
* select(name, species, homeworld)
```
]
 
.panel2-sw3-auto[

```
# A tibble: 87 × 3
   name               species homeworld
   <chr>              <chr>   <chr>    
 1 Luke Skywalker     Human   Tatooine 
 2 C-3PO              Droid   Tatooine 
 3 R2-D2              Droid   Naboo    
 4 Darth Vader        Human   Tatooine 
 5 Leia Organa        Human   Alderaan 
 6 Owen Lars          Human   Tatooine 
 7 Beru Whitesun lars Human   Tatooine 
 8 R5-D4              Droid   Tatooine 
 9 Biggs Darklighter  Human   Tatooine 
10 Obi-Wan Kenobi     Human   Stewjon  
# … with 77 more rows
```
…
.panel1-sw3-auto[

```r
starwars %>%
  select(name, species, homeworld) %>%
* count(species, homeworld)
```
]
 
.panel2-sw3-auto[

```
# A tibble: 58 × 3
   species  homeworld       n
   <chr>    <chr>       <int>
 1 Aleena   Aleen Minor     1
 2 Besalisk Ojom            1
 3 Cerean   Cerea           1
 4 Chagrian Champala        1
 5 Clawdite Zolan           1
 6 Droid    Naboo           1
 7 Droid    Tatooine        2
 8 Droid    <NA>            3
 9 Dug      Malastare       1
10 Ewok     Endor           1
# … with 48 more rows
```
…
We can arrange the data set

count: false

.panel1-sw4-auto[

```r
*starwars
```
]
 
.panel2-sw4-auto[

```
# A tibble: 87 × 14
   name    height  mass hair_color  skin_color eye_color birth_year sex   gender
   <chr>    <int> <dbl> <chr>       <chr>      <chr>          <dbl> <chr> <chr> 
 1 Luke S…    172    77 blond       fair       blue            19   male  mascu…
 2 C-3PO      167    75 <NA>        gold       yellow         112   none  mascu…
 3 R2-D2       96    32 <NA>        white, bl… red             33   none  mascu…
 4 Darth …    202   136 none        white      yellow          41.9 male  mascu…
 5 Leia O…    150    49 brown       light      brown           19   fema… femin…
 6 Owen L…    178   120 brown, grey light      blue            52   male  mascu…
 7 Beru W…    165    75 brown       light      blue            47   fema… femin…
 8 R5-D4       97    32 <NA>        white, red red             NA   none  mascu…
 9 Biggs …    183    84 black       light      brown           24   male  mascu…
10 Obi-Wa…    182    77 auburn, wh… fair       blue-gray       57   male  mascu…
# … with 77 more rows, and 5 more variables: homeworld <chr>, species <chr>,
#   films <list>, vehicles <list>, starships <list>
```
…
---
count: false

.panel1-sw4-auto[

```r
starwars %>%
* select(name, species, homeworld)
```
]
 
.panel2-sw4-auto[

```
# A tibble: 87 × 3
   name               species homeworld
   <chr>              <chr>   <chr>    
 1 Luke Skywalker     Human   Tatooine 
 2 C-3PO              Droid   Tatooine 
 3 R2-D2              Droid   Naboo    
 4 Darth Vader        Human   Tatooine 
 5 Leia Organa        Human   Alderaan 
 6 Owen Lars          Human   Tatooine 
 7 Beru Whitesun lars Human   Tatooine 
 8 R5-D4              Droid   Tatooine 
 9 Biggs Darklighter  Human   Tatooine 
10 Obi-Wan Kenobi     Human   Stewjon  
# … with 77 more rows
```
…
.panel1-sw4-auto[

```r
starwars %>%
  select(name, species, homeworld) %>%
* count(species, homeworld)
```
]
 
.panel2-sw4-auto[

```
# A tibble: 58 × 3
   species  homeworld       n
   <chr>    <chr>       <int>
 1 Aleena   Aleen Minor     1
 2 Besalisk Ojom            1
 3 Cerean   Cerea           1
 4 Chagrian Champala        1
 5 Clawdite Zolan           1
 6 Droid    Naboo           1
 7 Droid    Tatooine        2
 8 Droid    <NA>            3
 9 Dug      Malastare       1
10 Ewok     Endor           1
# … with 48 more rows
```
…
.panel1-sw4-auto[

```r
starwars %>%
  select(name, species, homeworld) %>%
  count(species, homeworld) %>%
* arrange(-n)
```
]
 
.panel2-sw4-auto[

```
# A tibble: 58 × 3
   species  homeworld     n
   <chr>    <chr>     <int>
 1 Human    Tatooine      8
 2 Human    Naboo         5
 3 Human    <NA>          5
 4 Droid    <NA>          3
 5 Gungan   Naboo         3
 6 Human    Alderaan      3
 7 Droid    Tatooine      2
 8 Human    Corellia      2
 9 Human    Coruscant     2
10 Kaminoan Kamino        2
# … with 48 more rows
```
…
>- `read.csv` with a `.` is messy

---

# Measures of Central Tendency

To take a look at how we assess the mean, median, and mode, let's use our original data set and first look at the `total` column which has the raw data counts. 

```r
voter_fraud %>%
  select(total) 
```

```
# A tibble: 50 × 1
   total
   <dbl>
 1     6
 2    11
 3     1
 4    24
 5    20
 6    21
 7     3
 8     9
 9    48
10    20
# … with 40 more rows
```
…
