Week 15: Something Fun - An Introduction to Sentiment Analysis Using (My Favorite Band): The Grateful Dead | Statistical Methods I
…
Getting Data

Grab the lyrics for American Beauty (1971) which was more about rock and roll and Shakedown Street (1978) which was influenced by disco (ugh yes…disco). Were going to see if the sentiments associated within each album changed over time. On a side note, feel free to grab albums and lyrics that you like instead but the example will be based on the two albums so I would suggest going through it with these first and then doing your own. We’ll compare the two using a sentiment analysis.

american_beauty <- genius_album(artist = "The Grateful Dead", album = "***American Beauty***")

## Joining, by = c("album_name", "track_n", "track_url")

To see the results, just type in the following:

american_beauty

## # A tibble: 359 x 4
##    track_n  line lyric                                               track_title
##      <int> <int> <chr>                                               <chr>      
##  1       1     1 Look out of any window                              Box of Rain
##  2       1     2 Any morning, any evening, any day                   Box of Rain
##  3       1     3 Maybe the sun is shining                            Box of Rain
##  4       1     4 Birds are winging or rain is falling from a heavy … Box of Rain
##  5       1     5 What do you want me to do                           Box of Rain
##  6       1     6 To do for you to see you through?                   Box of Rain
##  7       1     7 For this is all a dream we dreamed                  Box of Rain
##  8       1     8 One afternoon, long ago                             Box of Rain
##  9       1     9 Walk out of any doorway                             Box of Rain
## 10       1    10 Feel your way, feel your way like the day before    Box of Rain
## # … with 349 more rows

Now let’s do the same for Shakedown Street

shakedown_street <- genius_album(artist = "The Grateful Dead", album = "***Shakedown Street***")

## Joining, by = c("album_name", "track_n", "track_url")

And the results look like:

shakedown_street

## # A tibble: 304 x 4
##    track_n  line lyric                                               track_title
##      <int> <int> <chr>                                               <chr>      
##  1       1     1 "Well, I was feeling so bad, asked my family docto… Good Lovin'
##  2       1     2 "I said, \"Doctor, Doctor, Mister M.D., (doctor) c… Good Lovin'
##  3       1     3 "He said, \"Yeah, yeah, yeah, yeah, yeah, yeah, ye… Good Lovin'
##  4       1     4 "All you need, all you really need: good loving"    Good Lovin'
##  5       1     5 "Because you got to have loving (good loving)"      Good Lovin'
##  6       1     6 "Everybody got to have loving (good loving)"        Good Lovin'
##  7       1     7 "A little good loving now baby, good loving"        Good Lovin'
##  8       1     8 "So come on baby, squeeze me tight"                 Good Lovin'
##  9       1     9 "Don't you want your daddy to be alright?"          Good Lovin'
## 10       1    10 "I said baby, now it's for sure"                    Good Lovin'
## # … with 294 more rows
…
Ok so let’s take a moment to get our bearings straight. Currently we are

using the american_beauty data set

adding a column named album and then populating it with the text American Beauty (in quotes); and

rearranging the columns. By default, any new columns are put at the end of a data frame. Just to satisfy my obsessive nature, we’ll rearrange them in order of scope by putting the album name in front.

Good? Ok then let’s take a look at the data set now:

american_beauty

## # A tibble: 359 x 4
##    track_n  line lyric                                               track_title
##      <int> <int> <chr>                                               <chr>      
##  1       1     1 Look out of any window                              Box of Rain
##  2       1     2 Any morning, any evening, any day                   Box of Rain
##  3       1     3 Maybe the sun is shining                            Box of Rain
##  4       1     4 Birds are winging or rain is falling from a heavy … Box of Rain
##  5       1     5 What do you want me to do                           Box of Rain
##  6       1     6 To do for you to see you through?                   Box of Rain
##  7       1     7 For this is all a dream we dreamed                  Box of Rain
##  8       1     8 One afternoon, long ago                             Box of Rain
##  9       1     9 Walk out of any doorway                             Box of Rain
## 10       1    10 Feel your way, feel your way like the day before    Box of Rain
## # … with 349 more rows

Sure enough, there’s the column with the album name. So now let’s do the same for the other album

shakedown_street_tagged <- shakedown_street %>% 
  mutate(album = "***Shakedown Street***") %>%
  select(album, track_title, track_n, line, lyric)

and verify:

shakedown_street

## # A tibble: 304 x 4
##    track_n  line lyric                                               track_title
##      <int> <int> <chr>                                               <chr>      
##  1       1     1 "Well, I was feeling so bad, asked my family docto… Good Lovin'
##  2       1     2 "I said, \"Doctor, Doctor, Mister M.D., (doctor) c… Good Lovin'
##  3       1     3 "He said, \"Yeah, yeah, yeah, yeah, yeah, yeah, ye… Good Lovin'
##  4       1     4 "All you need, all you really need: good loving"    Good Lovin'
##  5       1     5 "Because you got to have loving (good loving)"      Good Lovin'
##  6       1     6 "Everybody got to have loving (good loving)"        Good Lovin'
##  7       1     7 "A little good loving now baby, good loving"        Good Lovin'
##  8       1     8 "So come on baby, squeeze me tight"                 Good Lovin'
##  9       1     9 "Don't you want your daddy to be alright?"          Good Lovin'
## 10       1    10 "I said baby, now it's for sure"                    Good Lovin'
## # … with 294 more rows

Great those look good. Now to merge the data sets, we are going to use a command called rbind. The single requirement is that both data frames have the same column names since it needs to know what columns go with what (but notice that having the same column names implies that the columns do not have to be in the same order!)

all_albums <- rbind(american_beauty_tagged, shakedown_street_tagged)

If you simply do the following

all_albums

## # A tibble: 663 x 5
##    album           track_title track_n  line lyric                              
##    <chr>           <chr>         <int> <int> <chr>                              
##  1 ***American Be… Box of Rain       1     1 Look out of any window             
##  2 ***American Be… Box of Rain       1     2 Any morning, any evening, any day  
##  3 ***American Be… Box of Rain       1     3 Maybe the sun is shining           
##  4 ***American Be… Box of Rain       1     4 Birds are winging or rain is falli…
##  5 ***American Be… Box of Rain       1     5 What do you want me to do          
##  6 ***American Be… Box of Rain       1     6 To do for you to see you through?  
##  7 ***American Be… Box of Rain       1     7 For this is all a dream we dreamed 
##  8 ***American Be… Box of Rain       1     8 One afternoon, long ago            
##  9 ***American Be… Box of Rain       1     9 Walk out of any doorway            
## 10 ***American Be… Box of Rain       1    10 Feel your way, feel your way like …
## # … with 653 more rows
…
Using the tidy_lyrics_nsw data set that we created earlier, we will filter out any numbers in our data set and

Get the Bing lexicon with the get_sentiments() function.

Join the Bing lexicon to the tokenized data set, specify by = “word”

emotions_lyrics_bing <- tidy_lyrics_nsw %>% 
  filter(!grepl('[0-9]', word)) %>% 
  left_join(get_sentiments("bing"), by = "word") %>% 
  group_by(album) %>%   
  mutate(sentiment = ifelse(is.na(sentiment), 'neutral', sentiment))

emotions_lyrics_bing

## # A tibble: 1,605 x 6
## # Groups:   album [2]
##    album                 track_title track_n  line word    sentiment
##    <chr>                 <chr>         <int> <int> <chr>   <chr>    
##  1 ***American Beauty*** Box of Rain       1     1 window  neutral  
##  2 ***American Beauty*** Box of Rain       1     2 morning neutral  
##  3 ***American Beauty*** Box of Rain       1     2 day     neutral  
##  4 ***American Beauty*** Box of Rain       1     3 sun     neutral  
##  5 ***American Beauty*** Box of Rain       1     3 shine   positive 
##  6 ***American Beauty*** Box of Rain       1     4 bird    neutral  
##  7 ***American Beauty*** Box of Rain       1     4 wing    neutral  
##  8 ***American Beauty*** Box of Rain       1     4 rain    neutral  
##  9 ***American Beauty*** Box of Rain       1     4 fall    negative 
## 10 ***American Beauty*** Box of Rain       1     4 heavy   neutral  
## # … with 1,595 more rows
…
Basic Text Analysis

Most Common Positive and Negative Words in a Bar Graph

We can associate terms tagged with a negative sentiment with negative numbers to better visualize them. To accomplish this, we can create a logic statement called an if-else statement that assigns -n to a word with a negative sentiment and to everything else, it provides an n count. We’ll then order the words in these groups by the number of times they appear in the plot.

word_count <- emotions_lyrics_bing %>% 
  count(word, sentiment, sort = TRUE) 

word_count

## # A tibble: 693 x 4
## # Groups:   album [2]
##    album                  word     sentiment     n
##    <chr>                  <chr>    <chr>     <int>
##  1 ***Shakedown Street*** love     positive     45
##  2 ***Shakedown Street*** lovin    neutral      25
##  3 ***Shakedown Street*** fire     neutral      24
##  4 ***Shakedown Street*** doctor   neutral      17
##  5 ***American Beauty***  home     neutral      16
##  6 ***Shakedown Street*** stagger  neutral      16
##  7 ***American Beauty***  friend   neutral      14
##  8 ***American Beauty***  time     neutral      14
##  9 ***Shakedown Street*** lee      neutral      14
## 10 ***Shakedown Street*** mountain neutral      14
## # … with 683 more rows
…
Count up the words by sentiment and then sort them by count(word, sentiment, sort = TRUE)

top_sentiments_bing <-  word_count %>% 
  filter(sentiment != 'neutral') %>% 
  group_by(sentiment) %>% 
  top_n(10, n) %>% 
  mutate(num = ifelse(sentiment == "negative", -n, n)) %>%  
  select(-n) %>% 
  mutate(word = reorder(word, num)) %>% 
  ungroup() 

top_sentiments_bing

## # A tibble: 21 x 4
##    album                  word    sentiment   num
##    <chr>                  <fct>   <chr>     <int>
##  1 ***Shakedown Street*** love    positive     45
##  2 ***American Beauty***  easy    positive     13
##  3 ***American Beauty***  sweet   positive      9
##  4 ***American Beauty***  devil   negative     -7
##  5 ***Shakedown Street*** dark    negative     -6
##  6 ***American Beauty***  fall    negative     -5
##  7 ***American Beauty***  lie     negative     -5
##  8 ***American Beauty***  numb    negative     -5
##  9 ***Shakedown Street*** dead    negative     -5
## 10 ***Shakedown Street*** miracle positive      5
## # … with 11 more rows
…
pos_neg_bing_track <- tidy_lyrics_nsw %>% 
  filter(!grepl('[0-9]', word)) %>% 
  left_join(get_sentiments("bing"), by = "word") %>% 
  mutate(sentiment = ifelse(is.na(sentiment), 'neutral', sentiment)) %>%   
  group_by(album, track_title, track_n, sentiment) %>% 
  summarize(n = n()) %>% 
  mutate(percent = n / sum(n)) %>% 
  select(-n) 

## `summarise()` regrouping output by 'album', 'track_title', 'track_n' (override with `.groups` argument)

pos_neg_bing_track

## # A tibble: 64 x 5
## # Groups:   album, track_title, track_n [22]
##    album                 track_title       track_n sentiment percent
##    <chr>                 <chr>               <int> <chr>       <dbl>
##  1 ***American Beauty*** Attics of My Life       9 negative   0.04  
##  2 ***American Beauty*** Attics of My Life       9 neutral    0.92  
##  3 ***American Beauty*** Attics of My Life       9 positive   0.04  
##  4 ***American Beauty*** Box of Rain             1 negative   0.0741
##  5 ***American Beauty*** Box of Rain             1 neutral    0.889 
##  6 ***American Beauty*** Box of Rain             1 positive   0.0370
##  7 ***American Beauty*** Brokedown Palace        7 negative   0.0392
##  8 ***American Beauty*** Brokedown Palace        7 neutral    0.892 
##  9 ***American Beauty*** Brokedown Palace        7 positive   0.0686
## 10 ***American Beauty*** Candyman                5 negative   0.0615
## # … with 54 more rows
…
emotions_tracks_nrc <- tidy_lyrics_nsw  %>% 
  left_join(get_sentiments("nrc"), by = "word") %>% 
  filter(!(sentiment == "negative" | sentiment == "positive")) %>% 
  mutate(sentiment = as.factor(sentiment)) %>% 
  group_by(album, track_title, track_n, sentiment) %>% 
  summarize(n = n()) %>% 
  mutate(percent = n / sum(n)) %>%   
  select(-n) %>% 
  ungroup() 

## `summarise()` regrouping output by 'album', 'track_title', 'track_n' (override with `.groups` argument)

emotions_tracks_nrc 

## # A tibble: 149 x 5
##    album                 track_title       track_n sentiment    percent
##    <chr>                 <chr>               <int> <fct>          <dbl>
##  1 ***American Beauty*** Attics of My Life       9 anger         0.0625
##  2 ***American Beauty*** Attics of My Life       9 anticipation  0.25  
##  3 ***American Beauty*** Attics of My Life       9 disgust       0.0625
##  4 ***American Beauty*** Attics of My Life       9 joy           0.125 
##  5 ***American Beauty*** Attics of My Life       9 sadness       0.188 
##  6 ***American Beauty*** Attics of My Life       9 surprise      0.0625
##  7 ***American Beauty*** Attics of My Life       9 trust         0.25  
##  8 ***American Beauty*** Box of Rain             1 anger         0.0345
##  9 ***American Beauty*** Box of Rain             1 anticipation  0.276 
## 10 ***American Beauty*** Box of Rain             1 fear          0.103 
## # … with 139 more rows
…
